9.911754039027300678e-01,1.321497543392724863e-02,1.000000000000000000e+00,1.000000000000000000e+00,1.024000000000000000e+04,1.280000000000000000e+02,4.388216917514801025e+02
9.900403683253256037e-01,2.763963945742482081e-02,1.000000000000000000e+00,9.899999999999999911e-01,1.024000000000000000e+04,1.280000000000000000e+02,4.286971089839935303e+02
9.891387173036827463e-01,3.266456709792981555e-02,1.000000000000000000e+00,9.799999999999999822e-01,1.024000000000000000e+04,1.280000000000000000e+02,4.323030207157135010e+02
9.869381054384837038e-01,5.085603370318861338e-02,1.000000000000000000e+00,9.699999999999999734e-01,1.024000000000000000e+04,1.280000000000000000e+02,4.449127531051635742e+02
9.865643064950411212e-01,4.955255534748768259e-02,1.000000000000000000e+00,9.599999999999999645e-01,1.024000000000000000e+04,1.280000000000000000e+02,4.437169988155364990e+02
9.855653002033196719e-01,5.342587601120057234e-02,1.000000000000000000e+00,9.499999999999999556e-01,1.024000000000000000e+04,1.280000000000000000e+02,4.361187379360198975e+02
9.839749277853228060e-01,6.086470003751424246e-02,9.999023437499999778e-01,9.399999999999999467e-01,1.024000000000000000e+04,1.280000000000000000e+02,9.775148067474365234e+02
9.831575375496180991e-01,6.582506477640788500e-02,1.000000000000000000e+00,9.299999999999999378e-01,1.024000000000000000e+04,1.280000000000000000e+02,4.542388472557067871e+02
9.810117688449333517e-01,7.271665367483390319e-02,9.999023437499999778e-01,9.200000000000000400e-01,1.024000000000000000e+04,1.280000000000000000e+02,4.490281541347503662e+02
9.814147800612739170e-01,7.114496305678677524e-02,1.000000000000000000e+00,9.100000000000000311e-01,1.024000000000000000e+04,1.280000000000000000e+02,4.745505223274230957e+02
9.820739084921313866e-01,6.707907881175138864e-02,1.000000000000000000e+00,9.000000000000000222e-01,1.024000000000000000e+04,1.280000000000000000e+02,4.858129396438598633e+02
9.800158883813572253e-01,7.733467711979627457e-02,9.999023437499999778e-01,8.900000000000000133e-01,1.024000000000000000e+04,1.280000000000000000e+02,4.665481975078582764e+02
9.778776796886777811e-01,8.504294464757855554e-02,9.998046874999999556e-01,8.800000000000000044e-01,1.024000000000000000e+04,1.280000000000000000e+02,4.516088535785675049e+02
9.773024698826430212e-01,8.472919973685597017e-02,9.993164062499999556e-01,8.699999999999999956e-01,1.024000000000000000e+04,1.280000000000000000e+02,4.597984712123870850e+02
9.773469959773795068e-01,8.586859541151357911e-02,9.994140624999999778e-01,8.599999999999999867e-01,1.024000000000000000e+04,1.280000000000000000e+02,4.887303357124328613e+02
9.766254313828219846e-01,9.035789916913805619e-02,9.994140624999999778e-01,8.499999999999999778e-01,1.024000000000000000e+04,1.280000000000000000e+02,4.612557375431060791e+02
9.737526200130705023e-01,9.627043207680512082e-02,9.982421875000000444e-01,8.399999999999999689e-01,1.024000000000000000e+04,1.280000000000000000e+02,4.715603582859039307e+02
9.734535131037143074e-01,9.843281313974805435e-02,9.977539062500000444e-01,8.299999999999999600e-01,1.024000000000000000e+04,1.280000000000000000e+02,4.692891139984130859e+02
9.737105974534865371e-01,9.639900367368010869e-02,9.975585937500000000e-01,8.200000000000000622e-01,1.024000000000000000e+04,1.280000000000000000e+02,4.617723436355590820e+02
9.714786003563233852e-01,1.046990832900887430e-01,9.957031250000000222e-01,8.100000000000000533e-01,1.024000000000000000e+04,1.280000000000000000e+02,8.653973383903503418e+02
9.718915064120603464e-01,1.042585664730350109e-01,9.955078124999999778e-01,8.000000000000000444e-01,1.024000000000000000e+04,1.280000000000000000e+02,5.471912910938262939e+02
9.709391819500639009e-01,1.048663410168360899e-01,9.922851562500000222e-01,7.900000000000000355e-01,1.024000000000000000e+04,1.280000000000000000e+02,4.858378505706787109e+02
9.708854924908172368e-01,1.046306231114101787e-01,9.874023437500000222e-01,7.800000000000000266e-01,1.024000000000000000e+04,1.280000000000000000e+02,4.730644869804382324e+02
9.672336369670438971e-01,1.125067599206957675e-01,9.851562499999999556e-01,7.700000000000000178e-01,1.024000000000000000e+04,1.280000000000000000e+02,5.313132493495941162e+02
9.672632611557292481e-01,1.161650292918744859e-01,9.800781250000000222e-01,7.600000000000000089e-01,1.024000000000000000e+04,1.280000000000000000e+02,4.692671320438385010e+02
9.675565696584960129e-01,1.139479459097128278e-01,9.713867187500000444e-01,7.500000000000000000e-01,1.024000000000000000e+04,1.280000000000000000e+02,4.605314197540283203e+02
9.677804830908124378e-01,1.123485641760305631e-01,9.583984374999999778e-01,7.399999999999999911e-01,1.024000000000000000e+04,1.280000000000000000e+02,5.377579171657562256e+02
9.662569573782889831e-01,1.189540887670746672e-01,9.440429687500000444e-01,7.299999999999999822e-01,1.024000000000000000e+04,1.280000000000000000e+02,4.619095642566680908e+02
9.657317198294386174e-01,1.183523488235819487e-01,9.318359375000000444e-01,7.199999999999999734e-01,1.024000000000000000e+04,1.280000000000000000e+02,5.273682296276092529e+02
9.658558144028781545e-01,1.162161182149395455e-01,9.132812500000000444e-01,7.099999999999999645e-01,1.024000000000000000e+04,1.280000000000000000e+02,4.719790334701538086e+02
9.638970396712122080e-01,1.223366046319613043e-01,8.959960937500000000e-01,6.999999999999999556e-01,1.024000000000000000e+04,1.280000000000000000e+02,4.954062724113464355e+02
9.671093696196009226e-01,1.131625800811267568e-01,8.637695312500000000e-01,6.899999999999999467e-01,1.024000000000000000e+04,1.280000000000000000e+02,4.929214079380035400e+02
9.589552131564550441e-01,1.325324556346930693e-01,8.404296875000000222e-01,6.799999999999999378e-01,1.024000000000000000e+04,1.280000000000000000e+02,9.334131615161895752e+02
9.637472404037839002e-01,1.242833123851958543e-01,8.062500000000000222e-01,6.699999999999999289e-01,1.024000000000000000e+04,1.280000000000000000e+02,4.778165256977081299e+02
9.646885979500263719e-01,1.186848614527724749e-01,7.724609375000000000e-01,6.599999999999999201e-01,1.024000000000000000e+04,1.280000000000000000e+02,4.655108473300933838e+02
1.789325371670722961e+04,4.144000000000000000e+03,-1.000000000000000000e+00,1.000000000000000000e+00,0.000000000000000000e+00,0.000000000000000000e+00,0.000000000000000000e+00
