 (9.793659924591943122e-01+0.000000000000000000e+00j), (8.181101136167166776e-02+0.000000000000000000e+00j), (9.665039062500000444e-01+0.000000000000000000e+00j), (9.669844819009255632e-01+0.000000000000000000e+00j), (1.024000000000000000e+04+0.000000000000000000e+00j), (1.280000000000000000e+02+0.000000000000000000e+00j), (1.058727579116821289e+02+0.000000000000000000e+00j)
 (9.790902038502151683e-01+0.000000000000000000e+00j), (8.121156260368911362e-02+0.000000000000000000e+00j), (9.609375000000000000e-01+0.000000000000000000e+00j), (9.573146370819163309e-01+0.000000000000000000e+00j), (1.024000000000000000e+04+0.000000000000000000e+00j), (1.280000000000000000e+02+0.000000000000000000e+00j), (1.036892805099487305e+02+0.000000000000000000e+00j)
 (9.805353463700590133e-01+0.000000000000000000e+00j), (7.545640452664964526e-02+0.000000000000000000e+00j), (9.516601562500000000e-01+0.000000000000000000e+00j), (9.476447922629069875e-01+0.000000000000000000e+00j), (1.024000000000000000e+04+0.000000000000000000e+00j), (1.280000000000000000e+02+0.000000000000000000e+00j), (1.178633453845977783e+02+0.000000000000000000e+00j)
 (9.781950693674897890e-01+0.000000000000000000e+00j), (8.513962102854104319e-02+0.000000000000000000e+00j), (9.478515625000000222e-01+0.000000000000000000e+00j), (9.379749474438977552e-01+0.000000000000000000e+00j), (1.024000000000000000e+04+0.000000000000000000e+00j), (1.280000000000000000e+02+0.000000000000000000e+00j), (1.912343280315399170e+02+0.000000000000000000e+00j)
 (9.784956442321732784e-01+0.000000000000000000e+00j), (8.229418269330780744e-02+0.000000000000000000e+00j), (9.324218749999999556e-01+0.000000000000000000e+00j), (9.283051026248885229e-01+0.000000000000000000e+00j), (1.024000000000000000e+04+0.000000000000000000e+00j), (1.280000000000000000e+02+0.000000000000000000e+00j), (1.555316925048828125e+02+0.000000000000000000e+00j)
 (9.786429710713573371e-01+0.000000000000000000e+00j), (8.178196961197330139e-02+0.000000000000000000e+00j), (9.252929687500000000e-01+0.000000000000000000e+00j), (9.186352578058792906e-01+0.000000000000000000e+00j), (1.024000000000000000e+04+0.000000000000000000e+00j), (1.280000000000000000e+02+0.000000000000000000e+00j), (1.011160881519317627e+02+0.000000000000000000e+00j)
 (9.778559316497372755e-01+0.000000000000000000e+00j), (8.563101204801230881e-02+0.000000000000000000e+00j), (9.166992187500000444e-01+0.000000000000000000e+00j), (9.089654129868699473e-01+0.000000000000000000e+00j), (1.024000000000000000e+04+0.000000000000000000e+00j), (1.280000000000000000e+02+0.000000000000000000e+00j), (6.283750159740447998e+02+0.000000000000000000e+00j)
 (9.761369439655407376e-01+0.000000000000000000e+00j), (8.875167389304872145e-02+0.000000000000000000e+00j), (9.111328125000000000e-01+0.000000000000000000e+00j), (8.992955681678607149e-01+0.000000000000000000e+00j), (1.024000000000000000e+04+0.000000000000000000e+00j), (1.280000000000000000e+02+0.000000000000000000e+00j), (1.556266605854034424e+02+0.000000000000000000e+00j)
 (9.772938270162336849e-01+0.000000000000000000e+00j), (8.533460271017491439e-02+0.000000000000000000e+00j), (8.973632812499999778e-01+0.000000000000000000e+00j), (8.896257233488515936e-01+0.000000000000000000e+00j), (1.024000000000000000e+04+0.000000000000000000e+00j), (1.280000000000000000e+02+0.000000000000000000e+00j), (1.614095096588134766e+02+0.000000000000000000e+00j)
 (9.773488839688080354e-01+0.000000000000000000e+00j), (8.677860746848389817e-02+0.000000000000000000e+00j), (8.811523437499999556e-01+0.000000000000000000e+00j), (8.799558785298422503e-01+0.000000000000000000e+00j), (1.024000000000000000e+04+0.000000000000000000e+00j), (1.280000000000000000e+02+0.000000000000000000e+00j), (1.092778317928314209e+02+0.000000000000000000e+00j)
 (9.773740057724734642e-01+0.000000000000000000e+00j), (8.469595243815590535e-02+0.000000000000000000e+00j), (8.650390624999999556e-01+0.000000000000000000e+00j), (8.702860337108330180e-01+0.000000000000000000e+00j), (1.024000000000000000e+04+0.000000000000000000e+00j), (1.280000000000000000e+02+0.000000000000000000e+00j), (1.668438105583190918e+02+0.000000000000000000e+00j)
 (9.776278555918009872e-01+0.000000000000000000e+00j), (8.410490979346345319e-02+0.000000000000000000e+00j), (8.506835937500000222e-01+0.000000000000000000e+00j), (8.606161888918237857e-01+0.000000000000000000e+00j), (1.024000000000000000e+04+0.000000000000000000e+00j), (1.280000000000000000e+02+0.000000000000000000e+00j), (3.912940094470977783e+02+0.000000000000000000e+00j)
 (9.765918979368972686e-01+0.000000000000000000e+00j), (8.626742995102459899e-02+0.000000000000000000e+00j), (8.316406250000000222e-01+0.000000000000000000e+00j), (8.509463440728145533e-01+0.000000000000000000e+00j), (1.024000000000000000e+04+0.000000000000000000e+00j), (1.280000000000000000e+02+0.000000000000000000e+00j), (1.152502591609954834e+02+0.000000000000000000e+00j)
 (9.774029068901997075e-01+0.000000000000000000e+00j), (8.662448910944767211e-02+0.000000000000000000e+00j), (8.215820312499999556e-01+0.000000000000000000e+00j), (8.412764992538052100e-01+0.000000000000000000e+00j), (1.024000000000000000e+04+0.000000000000000000e+00j), (1.280000000000000000e+02+0.000000000000000000e+00j), (1.746568915843963623e+02+0.000000000000000000e+00j)
 (9.783121544334222319e-01+0.000000000000000000e+00j), (8.008436331354069904e-02+0.000000000000000000e+00j), (8.075195312499999778e-01+0.000000000000000000e+00j), (8.316066544347959777e-01+0.000000000000000000e+00j), (1.024000000000000000e+04+0.000000000000000000e+00j), (1.280000000000000000e+02+0.000000000000000000e+00j), (1.169797110557556152e+02+0.000000000000000000e+00j)
 (9.785651837829369981e-01+0.000000000000000000e+00j), (8.024415548178363833e-02+0.000000000000000000e+00j), (7.937499999999999556e-01+0.000000000000000000e+00j), (8.219368096157867454e-01+0.000000000000000000e+00j), (1.024000000000000000e+04+0.000000000000000000e+00j), (1.280000000000000000e+02+0.000000000000000000e+00j), (1.672439115047454834e+02+0.000000000000000000e+00j)
 (9.778805587773363728e-01+0.000000000000000000e+00j), (8.472315074833308701e-02+0.000000000000000000e+00j), (7.742187499999999556e-01+0.000000000000000000e+00j), (8.122669647967774020e-01+0.000000000000000000e+00j), (1.024000000000000000e+04+0.000000000000000000e+00j), (1.280000000000000000e+02+0.000000000000000000e+00j), (1.495527577400207520e+02+0.000000000000000000e+00j)
 (9.759046057991065393e-01+0.000000000000000000e+00j), (8.934266474727532714e-02+0.000000000000000000e+00j), (7.631835937500000000e-01+0.000000000000000000e+00j), (8.025971199777681697e-01+0.000000000000000000e+00j), (1.024000000000000000e+04+0.000000000000000000e+00j), (1.280000000000000000e+02+0.000000000000000000e+00j), (1.612715165615081787e+02+0.000000000000000000e+00j)
 (9.770625358535738325e-01+0.000000000000000000e+00j), (8.497293955153262246e-02+0.000000000000000000e+00j), (7.373046875000000000e-01+0.000000000000000000e+00j), (7.929272751587590484e-01+0.000000000000000000e+00j), (1.024000000000000000e+04+0.000000000000000000e+00j), (1.280000000000000000e+02+0.000000000000000000e+00j), (1.767780909538269043e+02+0.000000000000000000e+00j)
 (9.759190441140175309e-01+0.000000000000000000e+00j), (8.880480470443864738e-02+0.000000000000000000e+00j), (7.101562500000000444e-01+0.000000000000000000e+00j), (7.832574303397497051e-01+0.000000000000000000e+00j), (1.024000000000000000e+04+0.000000000000000000e+00j), (1.280000000000000000e+02+0.000000000000000000e+00j), (2.474038753509521484e+02+0.000000000000000000e+00j)
 (9.778181090844986212e-01+0.000000000000000000e+00j), (8.286457957836629307e-02+0.000000000000000000e+00j), (6.990234374999999556e-01+0.000000000000000000e+00j), (7.735875855207404728e-01+0.000000000000000000e+00j), (1.024000000000000000e+04+0.000000000000000000e+00j), (1.280000000000000000e+02+0.000000000000000000e+00j), (1.277909688949584961e+02+0.000000000000000000e+00j)
 (9.768340878661588844e-01+0.000000000000000000e+00j), (8.404106699247344825e-02+0.000000000000000000e+00j), (6.782226562500000000e-01+0.000000000000000000e+00j), (7.639177407017312404e-01+0.000000000000000000e+00j), (1.024000000000000000e+04+0.000000000000000000e+00j), (1.280000000000000000e+02+0.000000000000000000e+00j), (1.476663651466369629e+02+0.000000000000000000e+00j)
 (9.773376888334439627e-01+0.000000000000000000e+00j), (8.125217937869273765e-02+0.000000000000000000e+00j), (6.677734374999999556e-01+0.000000000000000000e+00j), (7.542478958827220081e-01+0.000000000000000000e+00j), (1.024000000000000000e+04+0.000000000000000000e+00j), (1.280000000000000000e+02+0.000000000000000000e+00j), (1.302463059425354004e+02+0.000000000000000000e+00j)
 (9.765713195577849781e-01+0.000000000000000000e+00j), (8.966206350968725092e-02+0.000000000000000000e+00j), (6.388671875000000444e-01+0.000000000000000000e+00j), (7.445780510637126648e-01+0.000000000000000000e+00j), (1.024000000000000000e+04+0.000000000000000000e+00j), (1.280000000000000000e+02+0.000000000000000000e+00j), (1.367861919403076172e+02+0.000000000000000000e+00j)
 (9.779453572761775959e-01+0.000000000000000000e+00j), (8.220484270264750981e-02+0.000000000000000000e+00j), (6.141601562499999778e-01+0.000000000000000000e+00j), (7.349082062447034325e-01+0.000000000000000000e+00j), (1.024000000000000000e+04+0.000000000000000000e+00j), (1.280000000000000000e+02+0.000000000000000000e+00j), (6.257171185016632080e+02+0.000000000000000000e+00j)
 (9.768332823787945207e-01+0.000000000000000000e+00j), (8.728054342669847032e-02+0.000000000000000000e+00j), (6.029296874999999778e-01+0.000000000000000000e+00j), (7.252383614256942002e-01+0.000000000000000000e+00j), (1.024000000000000000e+04+0.000000000000000000e+00j), (1.280000000000000000e+02+0.000000000000000000e+00j), (9.858137655258178711e+01+0.000000000000000000e+00j)
 (9.773475076969178055e-01+0.000000000000000000e+00j), (8.360484248316109313e-02+0.000000000000000000e+00j), (5.824218749999999778e-01+0.000000000000000000e+00j), (7.155685166066848568e-01+0.000000000000000000e+00j), (1.024000000000000000e+04+0.000000000000000000e+00j), (1.280000000000000000e+02+0.000000000000000000e+00j), (8.447286844253540039e+01+0.000000000000000000e+00j)
 (9.778429916985108550e-01+0.000000000000000000e+00j), (8.221766776323266579e-02+0.000000000000000000e+00j), (5.558593750000000444e-01+0.000000000000000000e+00j), (7.058986717876756245e-01+0.000000000000000000e+00j), (1.024000000000000000e+04+0.000000000000000000e+00j), (1.280000000000000000e+02+0.000000000000000000e+00j), (1.646713147163391113e+02+0.000000000000000000e+00j)
 (9.770944881120078307e-01+0.000000000000000000e+00j), (8.583209819187836986e-02+0.000000000000000000e+00j), (5.449218750000000000e-01+0.000000000000000000e+00j), (6.962288269686663922e-01+0.000000000000000000e+00j), (1.024000000000000000e+04+0.000000000000000000e+00j), (1.280000000000000000e+02+0.000000000000000000e+00j), (1.547239494323730469e+02+0.000000000000000000e+00j)
 (9.782249508263131110e-01+0.000000000000000000e+00j), (8.156857198676711884e-02+0.000000000000000000e+00j), (5.150390624999999778e-01+0.000000000000000000e+00j), (6.865589821496571599e-01+0.000000000000000000e+00j), (1.024000000000000000e+04+0.000000000000000000e+00j), (1.280000000000000000e+02+0.000000000000000000e+00j), (2.609944283962249756e+02+0.000000000000000000e+00j)
 (9.774352725633161931e-01+0.000000000000000000e+00j), (8.439271513591885265e-02+0.000000000000000000e+00j), (4.901367187499999778e-01+0.000000000000000000e+00j), (6.768891373306478165e-01+0.000000000000000000e+00j), (1.024000000000000000e+04+0.000000000000000000e+00j), (1.280000000000000000e+02+0.000000000000000000e+00j), (1.526642060279846191e+02+0.000000000000000000e+00j)
 (9.777190360766074839e-01+0.000000000000000000e+00j), (8.330705238774602228e-02+0.000000000000000000e+00j), (4.804687500000000000e-01+0.000000000000000000e+00j), (6.672192925116385842e-01+0.000000000000000000e+00j), (1.024000000000000000e+04+0.000000000000000000e+00j), (1.280000000000000000e+02+0.000000000000000000e+00j), (1.321283767223358154e+02+0.000000000000000000e+00j)
 (9.768776627423879644e-01+0.000000000000000000e+00j), (8.666544506224156674e-02+0.000000000000000000e+00j), (4.546875000000000222e-01+0.000000000000000000e+00j), (6.575494476926293519e-01+0.000000000000000000e+00j), (1.024000000000000000e+04+0.000000000000000000e+00j), (1.280000000000000000e+02+0.000000000000000000e+00j), (6.437469115257263184e+02+0.000000000000000000e+00j)
 (9.756785319807309564e-01+0.000000000000000000e+00j), (9.115380104504464120e-02+0.000000000000000000e+00j), (4.394531250000000000e-01+0.000000000000000000e+00j), (6.478796028736200086e-01+0.000000000000000000e+00j), (1.024000000000000000e+04+0.000000000000000000e+00j), (1.280000000000000000e+02+0.000000000000000000e+00j), (8.691059970855712891e+01+0.000000000000000000e+00j)
 (9.764457859854069888e-01+0.000000000000000000e+00j), (8.685249677719655836e-02+0.000000000000000000e+00j), (4.027343749999999778e-01+0.000000000000000000e+00j), (6.382097580546107762e-01+0.000000000000000000e+00j), (1.024000000000000000e+04+0.000000000000000000e+00j), (1.280000000000000000e+02+0.000000000000000000e+00j), (1.276479575634002686e+02+0.000000000000000000e+00j)
 (6.772327277183532715e+03+0.000000000000000000e+00j), (2.320000000000000000e+02+0.000000000000000000e+00j), (8.116211951805070157e-01+5.256710223808868099e-01j), (-6.774465557687017192e-01-5.052979699035704542e-01j), (0.000000000000000000e+00+0.000000000000000000e+00j), (0.000000000000000000e+00+0.000000000000000000e+00j), (0.000000000000000000e+00+0.000000000000000000e+00j)
