 (9.306093757474387385e-01+0.000000000000000000e+00j), (2.241133858266921852e-01+0.000000000000000000e+00j), (9.554687499999999778e-01+0.000000000000000000e+00j), (9.560146598764418524e-01+0.000000000000000000e+00j), (1.024000000000000000e+04+0.000000000000000000e+00j), (1.280000000000000000e+02+0.000000000000000000e+00j), (3.894797611236572266e+01+0.000000000000000000e+00j)
 (9.309142961721761367e-01+0.000000000000000000e+00j), (2.232680211224640221e-01+0.000000000000000000e+00j), (9.586914062500000444e-01+0.000000000000000000e+00j), (9.560146598764418524e-01+0.000000000000000000e+00j), (1.024000000000000000e+04+0.000000000000000000e+00j), (1.280000000000000000e+02+0.000000000000000000e+00j), (3.977419686317443848e+01+0.000000000000000000e+00j)
 (9.295633919304554516e-01+0.000000000000000000e+00j), (2.248031261129801450e-01+0.000000000000000000e+00j), (9.620117187500000222e-01+0.000000000000000000e+00j), (9.560146598764418524e-01+0.000000000000000000e+00j), (1.024000000000000000e+04+0.000000000000000000e+00j), (1.280000000000000000e+02+0.000000000000000000e+00j), (4.073206663131713867e+01+0.000000000000000000e+00j)
 (9.277840661446556947e-01+0.000000000000000000e+00j), (2.263317401138096319e-01+0.000000000000000000e+00j), (9.551757812500000222e-01+0.000000000000000000e+00j), (9.560146598764418524e-01+0.000000000000000000e+00j), (1.024000000000000000e+04+0.000000000000000000e+00j), (1.280000000000000000e+02+0.000000000000000000e+00j), (3.925172233581542969e+01+0.000000000000000000e+00j)
 (9.282226370499724322e-01+0.000000000000000000e+00j), (2.264229108993104367e-01+0.000000000000000000e+00j), (9.595703125000000222e-01+0.000000000000000000e+00j), (9.560146598764418524e-01+0.000000000000000000e+00j), (1.024000000000000000e+04+0.000000000000000000e+00j), (1.280000000000000000e+02+0.000000000000000000e+00j), (3.959041953086853027e+01+0.000000000000000000e+00j)
 (9.276108328585895846e-01+0.000000000000000000e+00j), (2.261727590236299046e-01+0.000000000000000000e+00j), (9.567382812500000444e-01+0.000000000000000000e+00j), (9.560146598764418524e-01+0.000000000000000000e+00j), (1.024000000000000000e+04+0.000000000000000000e+00j), (1.280000000000000000e+02+0.000000000000000000e+00j), (4.010150337219238281e+01+0.000000000000000000e+00j)
 (9.291680116666733991e-01+0.000000000000000000e+00j), (2.244854063351804652e-01+0.000000000000000000e+00j), (9.566406250000000222e-01+0.000000000000000000e+00j), (9.560146598764418524e-01+0.000000000000000000e+00j), (1.024000000000000000e+04+0.000000000000000000e+00j), (1.280000000000000000e+02+0.000000000000000000e+00j), (3.960811519622802734e+01+0.000000000000000000e+00j)
 (9.267923941903696283e-01+0.000000000000000000e+00j), (2.265032123015972010e-01+0.000000000000000000e+00j), (9.603515624999999778e-01+0.000000000000000000e+00j), (9.560146598764418524e-01+0.000000000000000000e+00j), (1.024000000000000000e+04+0.000000000000000000e+00j), (1.280000000000000000e+02+0.000000000000000000e+00j), (3.980782723426818848e+01+0.000000000000000000e+00j)
 (9.292999281599472194e-01+0.000000000000000000e+00j), (2.198132334337108973e-01+0.000000000000000000e+00j), (9.543945312499999556e-01+0.000000000000000000e+00j), (9.560146598764418524e-01+0.000000000000000000e+00j), (1.024000000000000000e+04+0.000000000000000000e+00j), (1.280000000000000000e+02+0.000000000000000000e+00j), (3.906150341033935547e+01+0.000000000000000000e+00j)
 (9.225466573228042755e-01+0.000000000000000000e+00j), (2.293060374254419498e-01+0.000000000000000000e+00j), (9.592773437499999556e-01+0.000000000000000000e+00j), (9.560146598764418524e-01+0.000000000000000000e+00j), (1.024000000000000000e+04+0.000000000000000000e+00j), (1.280000000000000000e+02+0.000000000000000000e+00j), (3.925672745704650879e+01+0.000000000000000000e+00j)
 (9.244298192183296736e-01+0.000000000000000000e+00j), (2.201233542833038737e-01+0.000000000000000000e+00j), (9.592773437499999556e-01+0.000000000000000000e+00j), (9.560146598764418524e-01+0.000000000000000000e+00j), (1.024000000000000000e+04+0.000000000000000000e+00j), (1.280000000000000000e+02+0.000000000000000000e+00j), (3.939268350601196289e+01+0.000000000000000000e+00j)
 (9.146739342121521510e-01+0.000000000000000000e+00j), (2.289261193744534240e-01+0.000000000000000000e+00j), (9.614257812500000000e-01+0.000000000000000000e+00j), (9.560146598764418524e-01+0.000000000000000000e+00j), (1.024000000000000000e+04+0.000000000000000000e+00j), (1.280000000000000000e+02+0.000000000000000000e+00j), (3.938088893890380859e+01+0.000000000000000000e+00j)
 (9.028491589789153782e-01+0.000000000000000000e+00j), (2.339983857753392404e-01+0.000000000000000000e+00j), (9.557617187500000444e-01+0.000000000000000000e+00j), (9.560146598764418524e-01+0.000000000000000000e+00j), (1.024000000000000000e+04+0.000000000000000000e+00j), (1.280000000000000000e+02+0.000000000000000000e+00j), (3.960287332534790039e+01+0.000000000000000000e+00j)
 (8.783938905592477697e-01+0.000000000000000000e+00j), (2.509156232745351489e-01+0.000000000000000000e+00j), (9.560546875000000000e-01+0.000000000000000000e+00j), (9.560146598764418524e-01+0.000000000000000000e+00j), (1.024000000000000000e+04+0.000000000000000000e+00j), (1.280000000000000000e+02+0.000000000000000000e+00j), (3.952178144454956055e+01+0.000000000000000000e+00j)
 (8.451224114559018341e-01+0.000000000000000000e+00j), (2.668466354389549822e-01+0.000000000000000000e+00j), (9.550781250000000000e-01+0.000000000000000000e+00j), (9.560146598764418524e-01+0.000000000000000000e+00j), (1.024000000000000000e+04+0.000000000000000000e+00j), (1.280000000000000000e+02+0.000000000000000000e+00j), (4.020961546897888184e+01+0.000000000000000000e+00j)
 (7.881098179096843737e-01+0.000000000000000000e+00j), (2.932788006636445344e-01+0.000000000000000000e+00j), (9.586914062500000444e-01+0.000000000000000000e+00j), (9.560146598764418524e-01+0.000000000000000000e+00j), (1.024000000000000000e+04+0.000000000000000000e+00j), (1.280000000000000000e+02+0.000000000000000000e+00j), (3.930452895164489746e+01+0.000000000000000000e+00j)
 (7.040548785312563673e-01+0.000000000000000000e+00j), (3.199572058814733611e-01+0.000000000000000000e+00j), (9.591796875000000444e-01+0.000000000000000000e+00j), (9.560146598764418524e-01+0.000000000000000000e+00j), (1.024000000000000000e+04+0.000000000000000000e+00j), (1.280000000000000000e+02+0.000000000000000000e+00j), (4.230941438674926758e+01+0.000000000000000000e+00j)
 (6.204950564312290417e-01+0.000000000000000000e+00j), (3.301682223229903679e-01+0.000000000000000000e+00j), (9.594726562500000000e-01+0.000000000000000000e+00j), (9.560146598764418524e-01+0.000000000000000000e+00j), (1.024000000000000000e+04+0.000000000000000000e+00j), (1.280000000000000000e+02+0.000000000000000000e+00j), (3.949055552482604980e+01+0.000000000000000000e+00j)
 (5.533094952182295856e-01+0.000000000000000000e+00j), (3.199289715730794792e-01+0.000000000000000000e+00j), (9.559570312499999778e-01+0.000000000000000000e+00j), (9.560146598764418524e-01+0.000000000000000000e+00j), (1.024000000000000000e+04+0.000000000000000000e+00j), (1.280000000000000000e+02+0.000000000000000000e+00j), (4.010277318954467773e+01+0.000000000000000000e+00j)
 (5.167062918289021534e-01+0.000000000000000000e+00j), (3.061778396744024855e-01+0.000000000000000000e+00j), (9.584960937500000000e-01+0.000000000000000000e+00j), (9.560146598764418524e-01+0.000000000000000000e+00j), (1.024000000000000000e+04+0.000000000000000000e+00j), (1.280000000000000000e+02+0.000000000000000000e+00j), (3.918505549430847168e+01+0.000000000000000000e+00j)
 (7.948391346931457520e+02+0.000000000000000000e+00j), (2.320000000000000000e+02+0.000000000000000000e+00j), (8.135834743973766603e-01+5.201952825644192702e-01j), (-6.599731541461111295e-01-5.000344493837416415e-01j), (0.000000000000000000e+00+0.000000000000000000e+00j), (0.000000000000000000e+00+0.000000000000000000e+00j), (0.000000000000000000e+00+0.000000000000000000e+00j)
