9.959606106981251372e-01,5.761717249241523481e-02,9.999023437499999778e-01,9.899999999999999911e-01,1.024000000000000000e+04,1.280000000000000000e+02,4.317274308204650879e+01
9.965163021606748828e-01,5.297445467757197490e-02,9.999023437499999778e-01,9.899999999999999911e-01,1.024000000000000000e+04,1.280000000000000000e+02,4.339109444618225098e+01
9.966880934726971564e-01,5.210313656703167290e-02,1.000000000000000000e+00,9.899999999999999911e-01,1.024000000000000000e+04,1.280000000000000000e+02,4.101724958419799805e+01
9.966178972872860031e-01,5.155763441567298710e-02,9.999023437499999778e-01,9.899999999999999911e-01,1.024000000000000000e+04,1.280000000000000000e+02,4.213469052314758301e+01
9.966895574214331699e-01,5.027223926834128997e-02,1.000000000000000000e+00,9.899999999999999911e-01,1.024000000000000000e+04,1.280000000000000000e+02,4.158501982688903809e+01
9.961336080029902229e-01,5.517894938334379218e-02,1.000000000000000000e+00,9.899999999999999911e-01,1.024000000000000000e+04,1.280000000000000000e+02,4.177845406532287598e+01
9.961283325584513459e-01,5.384112943713269955e-02,9.999023437499999778e-01,9.899999999999999911e-01,1.024000000000000000e+04,1.280000000000000000e+02,4.116524004936218262e+01
9.951819490778781585e-01,5.775477817546282450e-02,9.998046874999999556e-01,9.899999999999999911e-01,1.024000000000000000e+04,1.280000000000000000e+02,4.116962790489196777e+01
9.962875439978813308e-01,4.572794121199139777e-02,9.999023437499999778e-01,9.899999999999999911e-01,1.024000000000000000e+04,1.280000000000000000e+02,4.165882396697998047e+01
9.949501428957135962e-01,4.823041326099140186e-02,1.000000000000000000e+00,9.899999999999999911e-01,1.024000000000000000e+04,1.280000000000000000e+02,4.168258714675903320e+01
9.923636396251834801e-01,5.502222614598645950e-02,1.000000000000000000e+00,9.899999999999999911e-01,1.024000000000000000e+04,1.280000000000000000e+02,4.375504922866821289e+01
9.887631077177450045e-01,5.615320353536883136e-02,9.999023437499999778e-01,9.899999999999999911e-01,1.024000000000000000e+04,1.280000000000000000e+02,4.171327853202819824e+01
9.821316710009611040e-01,5.854924277448014802e-02,1.000000000000000000e+00,9.899999999999999911e-01,1.024000000000000000e+04,1.280000000000000000e+02,4.405381894111633301e+01
9.681788752515120278e-01,7.440756116281670163e-02,9.999023437499999778e-01,9.899999999999999911e-01,1.024000000000000000e+04,1.280000000000000000e+02,4.329597783088684082e+01
9.432906301315476805e-01,1.056907900431299785e-01,9.999023437499999778e-01,9.899999999999999911e-01,1.024000000000000000e+04,1.280000000000000000e+02,4.414457178115844727e+01
8.846983202019647052e-01,1.628321455572694365e-01,9.999023437499999778e-01,9.899999999999999911e-01,1.024000000000000000e+04,1.280000000000000000e+02,4.117012071609497070e+01
7.843457769314674533e-01,2.595008593042815170e-01,1.000000000000000000e+00,9.899999999999999911e-01,1.024000000000000000e+04,1.280000000000000000e+02,4.307422852516174316e+01
6.779371889009626617e-01,3.031229695123019430e-01,1.000000000000000000e+00,9.899999999999999911e-01,1.024000000000000000e+04,1.280000000000000000e+02,4.222130537033081055e+01
5.712487834417069310e-01,3.182139298847296849e-01,9.995117187500000000e-01,9.899999999999999911e-01,1.024000000000000000e+04,1.280000000000000000e+02,4.356808567047119141e+01
5.209777546030167628e-01,3.091120125713441857e-01,1.000000000000000000e+00,9.899999999999999911e-01,1.024000000000000000e+04,1.280000000000000000e+02,4.369191050529479980e+01
8.495819675922393799e+02,2.320000000000000000e+02,-1.000000000000000000e+00,1.000000000000000000e+00,0.000000000000000000e+00,0.000000000000000000e+00,0.000000000000000000e+00
