 (9.966384455549474053e-01+0.000000000000000000e+00j), (5.301624689100530724e-02+0.000000000000000000e+00j), (9.999023437499999778e-01+0.000000000000000000e+00j), (9.899997980432319045e-01+0.000000000000000000e+00j), (1.024000000000000000e+04+0.000000000000000000e+00j), (1.280000000000000000e+02+0.000000000000000000e+00j), (4.188384199142456055e+01+0.000000000000000000e+00j)
 (9.970035019126259890e-01+0.000000000000000000e+00j), (5.050533185058839192e-02+0.000000000000000000e+00j), (9.998046874999999556e-01+0.000000000000000000e+00j), (9.899997980432319045e-01+0.000000000000000000e+00j), (1.024000000000000000e+04+0.000000000000000000e+00j), (1.280000000000000000e+02+0.000000000000000000e+00j), (4.090645551681518555e+01+0.000000000000000000e+00j)
 (9.974590704265813290e-01+0.000000000000000000e+00j), (4.480537166120055620e-02+0.000000000000000000e+00j), (9.997070312500000444e-01+0.000000000000000000e+00j), (9.899997980432319045e-01+0.000000000000000000e+00j), (1.024000000000000000e+04+0.000000000000000000e+00j), (1.280000000000000000e+02+0.000000000000000000e+00j), (4.299579048156738281e+01+0.000000000000000000e+00j)
 (9.963672200571778159e-01+0.000000000000000000e+00j), (5.366653481186400843e-02+0.000000000000000000e+00j), (1.000000000000000000e+00+0.000000000000000000e+00j), (9.899997980432319045e-01+0.000000000000000000e+00j), (1.024000000000000000e+04+0.000000000000000000e+00j), (1.280000000000000000e+02+0.000000000000000000e+00j), (4.142380023002624512e+01+0.000000000000000000e+00j)
 (9.960135266716250158e-01+0.000000000000000000e+00j), (5.607471398132800322e-02+0.000000000000000000e+00j), (9.999023437499999778e-01+0.000000000000000000e+00j), (9.899997980432319045e-01+0.000000000000000000e+00j), (1.024000000000000000e+04+0.000000000000000000e+00j), (1.280000000000000000e+02+0.000000000000000000e+00j), (4.122610783576965332e+01+0.000000000000000000e+00j)
 (9.970661677341068341e-01+0.000000000000000000e+00j), (4.782964711430089805e-02+0.000000000000000000e+00j), (9.999023437499999778e-01+0.000000000000000000e+00j), (9.899997980432319045e-01+0.000000000000000000e+00j), (1.024000000000000000e+04+0.000000000000000000e+00j), (1.280000000000000000e+02+0.000000000000000000e+00j), (4.227462029457092285e+01+0.000000000000000000e+00j)
 (9.965336920267057197e-01+0.000000000000000000e+00j), (5.086208550891690300e-02+0.000000000000000000e+00j), (9.996093750000000222e-01+0.000000000000000000e+00j), (9.899997980432319045e-01+0.000000000000000000e+00j), (1.024000000000000000e+04+0.000000000000000000e+00j), (1.280000000000000000e+02+0.000000000000000000e+00j), (4.231327486038208008e+01+0.000000000000000000e+00j)
 (9.965066197542525872e-01+0.000000000000000000e+00j), (4.883072090412195199e-02+0.000000000000000000e+00j), (9.999023437499999778e-01+0.000000000000000000e+00j), (9.899997980432319045e-01+0.000000000000000000e+00j), (1.024000000000000000e+04+0.000000000000000000e+00j), (1.280000000000000000e+02+0.000000000000000000e+00j), (4.341107487678527832e+01+0.000000000000000000e+00j)
 (9.956155347185090543e-01+0.000000000000000000e+00j), (5.166161647139558971e-02+0.000000000000000000e+00j), (9.998046874999999556e-01+0.000000000000000000e+00j), (9.899997980432319045e-01+0.000000000000000000e+00j), (1.024000000000000000e+04+0.000000000000000000e+00j), (1.280000000000000000e+02+0.000000000000000000e+00j), (4.229782032966613770e+01+0.000000000000000000e+00j)
 (9.940299230982764245e-01+0.000000000000000000e+00j), (5.773045952165777733e-02+0.000000000000000000e+00j), (9.998046874999999556e-01+0.000000000000000000e+00j), (9.899997980432319045e-01+0.000000000000000000e+00j), (1.024000000000000000e+04+0.000000000000000000e+00j), (1.280000000000000000e+02+0.000000000000000000e+00j), (4.415844297409057617e+01+0.000000000000000000e+00j)
 (9.877424238747105623e-01+0.000000000000000000e+00j), (7.826054834132054050e-02+0.000000000000000000e+00j), (9.999023437499999778e-01+0.000000000000000000e+00j), (9.899997980432319045e-01+0.000000000000000000e+00j), (1.024000000000000000e+04+0.000000000000000000e+00j), (1.280000000000000000e+02+0.000000000000000000e+00j), (4.224058580398559570e+01+0.000000000000000000e+00j)
 (9.844167489397823712e-01+0.000000000000000000e+00j), (7.784786072414359714e-02+0.000000000000000000e+00j), (9.998046874999999556e-01+0.000000000000000000e+00j), (9.899997980432319045e-01+0.000000000000000000e+00j), (1.024000000000000000e+04+0.000000000000000000e+00j), (1.280000000000000000e+02+0.000000000000000000e+00j), (4.238253569602966309e+01+0.000000000000000000e+00j)
 (9.721740175231377012e-01+0.000000000000000000e+00j), (9.460966784874930147e-02+0.000000000000000000e+00j), (9.999023437499999778e-01+0.000000000000000000e+00j), (9.899997980432319045e-01+0.000000000000000000e+00j), (1.024000000000000000e+04+0.000000000000000000e+00j), (1.280000000000000000e+02+0.000000000000000000e+00j), (4.226654028892517090e+01+0.000000000000000000e+00j)
 (9.586659075238209704e-01+0.000000000000000000e+00j), (1.003255466225749654e-01+0.000000000000000000e+00j), (9.998046874999999556e-01+0.000000000000000000e+00j), (9.899997980432319045e-01+0.000000000000000000e+00j), (1.024000000000000000e+04+0.000000000000000000e+00j), (1.280000000000000000e+02+0.000000000000000000e+00j), (4.244827556610107422e+01+0.000000000000000000e+00j)
 (9.273923406390902624e-01+0.000000000000000000e+00j), (1.212251060552636817e-01+0.000000000000000000e+00j), (1.000000000000000000e+00+0.000000000000000000e+00j), (9.899997980432319045e-01+0.000000000000000000e+00j), (1.024000000000000000e+04+0.000000000000000000e+00j), (1.280000000000000000e+02+0.000000000000000000e+00j), (4.158733797073364258e+01+0.000000000000000000e+00j)
 (8.518114928995145219e-01+0.000000000000000000e+00j), (2.102291698222178984e-01+0.000000000000000000e+00j), (9.996093750000000222e-01+0.000000000000000000e+00j), (9.899997980432319045e-01+0.000000000000000000e+00j), (1.024000000000000000e+04+0.000000000000000000e+00j), (1.280000000000000000e+02+0.000000000000000000e+00j), (4.180042195320129395e+01+0.000000000000000000e+00j)
 (7.453722702607488149e-01+0.000000000000000000e+00j), (2.795911692913201629e-01+0.000000000000000000e+00j), (9.999023437499999778e-01+0.000000000000000000e+00j), (9.899997980432319045e-01+0.000000000000000000e+00j), (1.024000000000000000e+04+0.000000000000000000e+00j), (1.280000000000000000e+02+0.000000000000000000e+00j), (4.333250594139099121e+01+0.000000000000000000e+00j)
 (6.267206239010905122e-01+0.000000000000000000e+00j), (3.282297043158142746e-01+0.000000000000000000e+00j), (9.998046874999999556e-01+0.000000000000000000e+00j), (9.899997980432319045e-01+0.000000000000000000e+00j), (1.024000000000000000e+04+0.000000000000000000e+00j), (1.280000000000000000e+02+0.000000000000000000e+00j), (4.224839496612548828e+01+0.000000000000000000e+00j)
 (5.206493329101520295e-01+0.000000000000000000e+00j), (3.073509976233107510e-01+0.000000000000000000e+00j), (9.999023437499999778e-01+0.000000000000000000e+00j), (9.899997980432319045e-01+0.000000000000000000e+00j), (1.024000000000000000e+04+0.000000000000000000e+00j), (1.280000000000000000e+02+0.000000000000000000e+00j), (4.260169672966003418e+01+0.000000000000000000e+00j)
 (4.876071787576825023e-01+0.000000000000000000e+00j), (3.067563445857618976e-01+0.000000000000000000e+00j), (9.999023437499999778e-01+0.000000000000000000e+00j), (9.899997980432319045e-01+0.000000000000000000e+00j), (1.024000000000000000e+04+0.000000000000000000e+00j), (1.280000000000000000e+02+0.000000000000000000e+00j), (4.322843241691589355e+01+0.000000000000000000e+00j)
 (8.472289121150970459e+02+0.000000000000000000e+00j), (2.320000000000000000e+02+0.000000000000000000e+00j), (-9.999677965153843662e-01-7.999871170059794784e-03j), (9.997500312710910775e-01+0.000000000000000000e+00j), (0.000000000000000000e+00+0.000000000000000000e+00j), (0.000000000000000000e+00+0.000000000000000000e+00j), (0.000000000000000000e+00+0.000000000000000000e+00j)
