 (9.234724020245013154e-01+0.000000000000000000e+00j), (1.971864340030017038e-01+0.000000000000000000e+00j), (9.998046874999999556e-01+0.000000000000000000e+00j), (9.724211680711768446e-01+0.000000000000000000e+00j), (1.024000000000000000e+04+0.000000000000000000e+00j), (1.280000000000000000e+02+0.000000000000000000e+00j), (4.269516155719757080e+02+0.000000000000000000e+00j)
 (9.192963658898086754e-01+0.000000000000000000e+00j), (2.034942793599715249e-01+0.000000000000000000e+00j), (9.996093750000000222e-01+0.000000000000000000e+00j), (9.626969563904650418e-01+0.000000000000000000e+00j), (1.024000000000000000e+04+0.000000000000000000e+00j), (1.280000000000000000e+02+0.000000000000000000e+00j), (4.224868013858795166e+02+0.000000000000000000e+00j)
 (9.212806972428273511e-01+0.000000000000000000e+00j), (2.005842451127025361e-01+0.000000000000000000e+00j), (9.999023437499999778e-01+0.000000000000000000e+00j), (9.529727447097532389e-01+0.000000000000000000e+00j), (1.024000000000000000e+04+0.000000000000000000e+00j), (1.280000000000000000e+02+0.000000000000000000e+00j), (4.271259863376617432e+02+0.000000000000000000e+00j)
 (9.168241568169397393e-01+0.000000000000000000e+00j), (2.083241473388902643e-01+0.000000000000000000e+00j), (9.993164062499999556e-01+0.000000000000000000e+00j), (9.432485330290415471e-01+0.000000000000000000e+00j), (1.024000000000000000e+04+0.000000000000000000e+00j), (1.280000000000000000e+02+0.000000000000000000e+00j), (4.245869641304016113e+02+0.000000000000000000e+00j)
 (9.228294286455978046e-01+0.000000000000000000e+00j), (1.970907536465103527e-01+0.000000000000000000e+00j), (9.989257812499999778e-01+0.000000000000000000e+00j), (9.335243213483297442e-01+0.000000000000000000e+00j), (1.024000000000000000e+04+0.000000000000000000e+00j), (1.280000000000000000e+02+0.000000000000000000e+00j), (4.257050180435180664e+02+0.000000000000000000e+00j)
 (9.220300282258468982e-01+0.000000000000000000e+00j), (1.981093502345274981e-01+0.000000000000000000e+00j), (9.991210937500000222e-01+0.000000000000000000e+00j), (9.238001096676179413e-01+0.000000000000000000e+00j), (1.024000000000000000e+04+0.000000000000000000e+00j), (1.280000000000000000e+02+0.000000000000000000e+00j), (4.246231842041015625e+02+0.000000000000000000e+00j)
 (9.171200653044515594e-01+0.000000000000000000e+00j), (2.059678849610737661e-01+0.000000000000000000e+00j), (9.986328125000000222e-01+0.000000000000000000e+00j), (9.140758979869061385e-01+0.000000000000000000e+00j), (1.024000000000000000e+04+0.000000000000000000e+00j), (1.280000000000000000e+02+0.000000000000000000e+00j), (4.300299425125122070e+02+0.000000000000000000e+00j)
 (9.173305742625934567e-01+0.000000000000000000e+00j), (2.058934982726265683e-01+0.000000000000000000e+00j), (9.974609374999999778e-01+0.000000000000000000e+00j), (9.043516863061944466e-01+0.000000000000000000e+00j), (1.024000000000000000e+04+0.000000000000000000e+00j), (1.280000000000000000e+02+0.000000000000000000e+00j), (4.355429649353027344e+02+0.000000000000000000e+00j)
 (9.196088857390586346e-01+0.000000000000000000e+00j), (2.013918636582147648e-01+0.000000000000000000e+00j), (9.958007812500000444e-01+0.000000000000000000e+00j), (8.946274746254827548e-01+0.000000000000000000e+00j), (1.024000000000000000e+04+0.000000000000000000e+00j), (1.280000000000000000e+02+0.000000000000000000e+00j), (4.278539211750030518e+02+0.000000000000000000e+00j)
 (9.205076827417431051e-01+0.000000000000000000e+00j), (2.013573036768415425e-01+0.000000000000000000e+00j), (9.939453124999999556e-01+0.000000000000000000e+00j), (8.849032629447709519e-01+0.000000000000000000e+00j), (1.024000000000000000e+04+0.000000000000000000e+00j), (1.280000000000000000e+02+0.000000000000000000e+00j), (4.349093384742736816e+02+0.000000000000000000e+00j)
 (9.190594538151508619e-01+0.000000000000000000e+00j), (2.004114663603603075e-01+0.000000000000000000e+00j), (9.922851562500000222e-01+0.000000000000000000e+00j), (8.751790512640591491e-01+0.000000000000000000e+00j), (1.024000000000000000e+04+0.000000000000000000e+00j), (1.280000000000000000e+02+0.000000000000000000e+00j), (4.358720383644104004e+02+0.000000000000000000e+00j)
 (9.191099040174870449e-01+0.000000000000000000e+00j), (2.024140911661539144e-01+0.000000000000000000e+00j), (9.908203125000000222e-01+0.000000000000000000e+00j), (8.654548395833474572e-01+0.000000000000000000e+00j), (1.024000000000000000e+04+0.000000000000000000e+00j), (1.280000000000000000e+02+0.000000000000000000e+00j), (4.377760045528411865e+02+0.000000000000000000e+00j)
 (9.161895663967211112e-01+0.000000000000000000e+00j), (2.037193336655833131e-01+0.000000000000000000e+00j), (9.856445312499999556e-01+0.000000000000000000e+00j), (8.557306279026356544e-01+0.000000000000000000e+00j), (1.024000000000000000e+04+0.000000000000000000e+00j), (1.280000000000000000e+02+0.000000000000000000e+00j), (4.285377504825592041e+02+0.000000000000000000e+00j)
 (9.180096410994453837e-01+0.000000000000000000e+00j), (2.027438928513682903e-01+0.000000000000000000e+00j), (9.837890624999999778e-01+0.000000000000000000e+00j), (8.460064162219238515e-01+0.000000000000000000e+00j), (1.024000000000000000e+04+0.000000000000000000e+00j), (1.280000000000000000e+02+0.000000000000000000e+00j), (4.349161109924316406e+02+0.000000000000000000e+00j)
 (9.182370085277159477e-01+0.000000000000000000e+00j), (2.013740244990636918e-01+0.000000000000000000e+00j), (9.750976562500000000e-01+0.000000000000000000e+00j), (8.362822045412120486e-01+0.000000000000000000e+00j), (1.024000000000000000e+04+0.000000000000000000e+00j), (1.280000000000000000e+02+0.000000000000000000e+00j), (4.316139123439788818e+02+0.000000000000000000e+00j)
 (9.176242210713595471e-01+0.000000000000000000e+00j), (2.027737727085388575e-01+0.000000000000000000e+00j), (9.687500000000000000e-01+0.000000000000000000e+00j), (8.265579928605002458e-01+0.000000000000000000e+00j), (1.024000000000000000e+04+0.000000000000000000e+00j), (1.280000000000000000e+02+0.000000000000000000e+00j), (4.321432747840881348e+02+0.000000000000000000e+00j)
 (9.144914456762469612e-01+0.000000000000000000e+00j), (2.093443247592965961e-01+0.000000000000000000e+00j), (9.624023437500000000e-01+0.000000000000000000e+00j), (8.168337811797885539e-01+0.000000000000000000e+00j), (1.024000000000000000e+04+0.000000000000000000e+00j), (1.280000000000000000e+02+0.000000000000000000e+00j), (4.324822058677673340e+02+0.000000000000000000e+00j)
 (9.166364999760742149e-01+0.000000000000000000e+00j), (2.031129744018990990e-01+0.000000000000000000e+00j), (9.554687499999999778e-01+0.000000000000000000e+00j), (8.071095694990767511e-01+0.000000000000000000e+00j), (1.024000000000000000e+04+0.000000000000000000e+00j), (1.280000000000000000e+02+0.000000000000000000e+00j), (4.317140088081359863e+02+0.000000000000000000e+00j)
 (9.125204165993742178e-01+0.000000000000000000e+00j), (2.089131693517298771e-01+0.000000000000000000e+00j), (9.410156250000000222e-01+0.000000000000000000e+00j), (7.973853578183650592e-01+0.000000000000000000e+00j), (1.024000000000000000e+04+0.000000000000000000e+00j), (1.280000000000000000e+02+0.000000000000000000e+00j), (4.311315152645111084e+02+0.000000000000000000e+00j)
 (9.125928885506618959e-01+0.000000000000000000e+00j), (2.085108162516766395e-01+0.000000000000000000e+00j), (9.309570312499999556e-01+0.000000000000000000e+00j), (7.876611461376532564e-01+0.000000000000000000e+00j), (1.024000000000000000e+04+0.000000000000000000e+00j), (1.280000000000000000e+02+0.000000000000000000e+00j), (4.356735374927520752e+02+0.000000000000000000e+00j)
 (9.138891054578134332e-01+0.000000000000000000e+00j), (2.060528022911621848e-01+0.000000000000000000e+00j), (9.147460937500000444e-01+0.000000000000000000e+00j), (7.779369344569415645e-01+0.000000000000000000e+00j), (1.024000000000000000e+04+0.000000000000000000e+00j), (1.280000000000000000e+02+0.000000000000000000e+00j), (4.374235503673553467e+02+0.000000000000000000e+00j)
 (9.156498092539318012e-01+0.000000000000000000e+00j), (2.048967055278594351e-01+0.000000000000000000e+00j), (8.852539062500000000e-01+0.000000000000000000e+00j), (7.682127227762297617e-01+0.000000000000000000e+00j), (1.024000000000000000e+04+0.000000000000000000e+00j), (1.280000000000000000e+02+0.000000000000000000e+00j), (4.306947827339172363e+02+0.000000000000000000e+00j)
 (9.075123456632798735e-01+0.000000000000000000e+00j), (2.161166843790195413e-01+0.000000000000000000e+00j), (8.699218749999999556e-01+0.000000000000000000e+00j), (7.584885110955179588e-01+0.000000000000000000e+00j), (1.024000000000000000e+04+0.000000000000000000e+00j), (1.280000000000000000e+02+0.000000000000000000e+00j), (4.315572769641876221e+02+0.000000000000000000e+00j)
 (9.144214404014529007e-01+0.000000000000000000e+00j), (2.085546101894048265e-01+0.000000000000000000e+00j), (8.441406249999999778e-01+0.000000000000000000e+00j), (7.487642994148061559e-01+0.000000000000000000e+00j), (1.024000000000000000e+04+0.000000000000000000e+00j), (1.280000000000000000e+02+0.000000000000000000e+00j), (4.290313587188720703e+02+0.000000000000000000e+00j)
 (9.141513668242572388e-01+0.000000000000000000e+00j), (2.053883334135202798e-01+0.000000000000000000e+00j), (8.226562499999999778e-01+0.000000000000000000e+00j), (7.390400877340944641e-01+0.000000000000000000e+00j), (1.024000000000000000e+04+0.000000000000000000e+00j), (1.280000000000000000e+02+0.000000000000000000e+00j), (4.290837533473968506e+02+0.000000000000000000e+00j)
 (9.156054020175263819e-01+0.000000000000000000e+00j), (2.062042182381053912e-01+0.000000000000000000e+00j), (7.894531249999999778e-01+0.000000000000000000e+00j), (7.293158760533826612e-01+0.000000000000000000e+00j), (1.024000000000000000e+04+0.000000000000000000e+00j), (1.280000000000000000e+02+0.000000000000000000e+00j), (4.210094146728515625e+02+0.000000000000000000e+00j)
 (9.133407813773520845e-01+0.000000000000000000e+00j), (2.083056974113342286e-01+0.000000000000000000e+00j), (7.623046875000000222e-01+0.000000000000000000e+00j), (7.195916643726708584e-01+0.000000000000000000e+00j), (1.024000000000000000e+04+0.000000000000000000e+00j), (1.280000000000000000e+02+0.000000000000000000e+00j), (4.192924039363861084e+02+0.000000000000000000e+00j)
 (9.156824446198371659e-01+0.000000000000000000e+00j), (2.033347763093189819e-01+0.000000000000000000e+00j), (7.199218750000000444e-01+0.000000000000000000e+00j), (7.098674526919590555e-01+0.000000000000000000e+00j), (1.024000000000000000e+04+0.000000000000000000e+00j), (1.280000000000000000e+02+0.000000000000000000e+00j), (4.235987694263458252e+02+0.000000000000000000e+00j)
 (9.135191929292564295e-01+0.000000000000000000e+00j), (2.063788216559386268e-01+0.000000000000000000e+00j), (6.884765625000000000e-01+0.000000000000000000e+00j), (7.001432410112472526e-01+0.000000000000000000e+00j), (1.024000000000000000e+04+0.000000000000000000e+00j), (1.280000000000000000e+02+0.000000000000000000e+00j), (4.196712059974670410e+02+0.000000000000000000e+00j)
 (9.126229156259776376e-01+0.000000000000000000e+00j), (2.101670396585195721e-01+0.000000000000000000e+00j), (6.550781249999999556e-01+0.000000000000000000e+00j), (6.904190293305355608e-01+0.000000000000000000e+00j), (1.024000000000000000e+04+0.000000000000000000e+00j), (1.280000000000000000e+02+0.000000000000000000e+00j), (4.205899157524108887e+02+0.000000000000000000e+00j)
 (9.125064938140557969e-01+0.000000000000000000e+00j), (2.087197793020149905e-01+0.000000000000000000e+00j), (6.209960937499999778e-01+0.000000000000000000e+00j), (6.806948176498237579e-01+0.000000000000000000e+00j), (1.024000000000000000e+04+0.000000000000000000e+00j), (1.280000000000000000e+02+0.000000000000000000e+00j), (4.219241750240325928e+02+0.000000000000000000e+00j)
 (9.174014696531950230e-01+0.000000000000000000e+00j), (2.033290341180268579e-01+0.000000000000000000e+00j), (5.672851562499999778e-01+0.000000000000000000e+00j), (6.709706059691119551e-01+0.000000000000000000e+00j), (1.024000000000000000e+04+0.000000000000000000e+00j), (1.280000000000000000e+02+0.000000000000000000e+00j), (4.262056639194488525e+02+0.000000000000000000e+00j)
 (9.114065551290621015e-01+0.000000000000000000e+00j), (2.094659425745269421e-01+0.000000000000000000e+00j), (5.334960937499999556e-01+0.000000000000000000e+00j), (6.612463942884001522e-01+0.000000000000000000e+00j), (1.024000000000000000e+04+0.000000000000000000e+00j), (1.280000000000000000e+02+0.000000000000000000e+00j), (4.345445435047149658e+02+0.000000000000000000e+00j)
 (9.102607700000722168e-01+0.000000000000000000e+00j), (2.125066462703475711e-01+0.000000000000000000e+00j), (4.918945312499999889e-01+0.000000000000000000e+00j), (6.515221826076884604e-01+0.000000000000000000e+00j), (1.024000000000000000e+04+0.000000000000000000e+00j), (1.280000000000000000e+02+0.000000000000000000e+00j), (4.317442531585693359e+02+0.000000000000000000e+00j)
 (9.129842713277388500e-01+0.000000000000000000e+00j), (2.091076047170635777e-01+0.000000000000000000e+00j), (4.492187500000000000e-01+0.000000000000000000e+00j), (6.417979709269766575e-01+0.000000000000000000e+00j), (1.024000000000000000e+04+0.000000000000000000e+00j), (1.280000000000000000e+02+0.000000000000000000e+00j), (4.305026338100433350e+02+0.000000000000000000e+00j)
 (1.501889791560173035e+04+0.000000000000000000e+00j), (4.144000000000000000e+03+0.000000000000000000e+00j), (8.039683062347150466e-01+5.470264076651103480e-01j), (-7.455928220968053299e-01-5.258256999309030011e-01j), (0.000000000000000000e+00+0.000000000000000000e+00j), (0.000000000000000000e+00+0.000000000000000000e+00j), (0.000000000000000000e+00+0.000000000000000000e+00j)
