 (9.097258799864585965e-01+0.000000000000000000e+00j), (2.113281807151962954e-01+0.000000000000000000e+00j), (9.991210937500000222e-01+0.000000000000000000e+00j), (9.697100425795404099e-01+0.000000000000000000e+00j), (1.024000000000000000e+04+0.000000000000000000e+00j), (1.280000000000000000e+02+0.000000000000000000e+00j), (4.342972619533538818e+02+0.000000000000000000e+00j)
 (9.142343013495484172e-01+0.000000000000000000e+00j), (2.060329178966426589e-01+0.000000000000000000e+00j), (9.987304687500000444e-01+0.000000000000000000e+00j), (9.600129421537449970e-01+0.000000000000000000e+00j), (1.024000000000000000e+04+0.000000000000000000e+00j), (1.280000000000000000e+02+0.000000000000000000e+00j), (4.356611583232879639e+02+0.000000000000000000e+00j)
 (9.092837684726399194e-01+0.000000000000000000e+00j), (2.127513692662510170e-01+0.000000000000000000e+00j), (9.983398437499999556e-01+0.000000000000000000e+00j), (9.503158417279495840e-01+0.000000000000000000e+00j), (1.024000000000000000e+04+0.000000000000000000e+00j), (1.280000000000000000e+02+0.000000000000000000e+00j), (4.331502325534820557e+02+0.000000000000000000e+00j)
 (9.113038343459931578e-01+0.000000000000000000e+00j), (2.071580412539744120e-01+0.000000000000000000e+00j), (9.973632812499999556e-01+0.000000000000000000e+00j), (9.406187413021541710e-01+0.000000000000000000e+00j), (1.024000000000000000e+04+0.000000000000000000e+00j), (1.280000000000000000e+02+0.000000000000000000e+00j), (4.345073318481445312e+02+0.000000000000000000e+00j)
 (9.144882220812520224e-01+0.000000000000000000e+00j), (2.043738062848611814e-01+0.000000000000000000e+00j), (9.958984374999999556e-01+0.000000000000000000e+00j), (9.309216408763587580e-01+0.000000000000000000e+00j), (1.024000000000000000e+04+0.000000000000000000e+00j), (1.280000000000000000e+02+0.000000000000000000e+00j), (4.346663796901702881e+02+0.000000000000000000e+00j)
 (9.115629600153384304e-01+0.000000000000000000e+00j), (2.085149532551598961e-01+0.000000000000000000e+00j), (9.948242187500000444e-01+0.000000000000000000e+00j), (9.212245404505633450e-01+0.000000000000000000e+00j), (1.024000000000000000e+04+0.000000000000000000e+00j), (1.280000000000000000e+02+0.000000000000000000e+00j), (4.360147821903228760e+02+0.000000000000000000e+00j)
 (9.104963683112657913e-01+0.000000000000000000e+00j), (2.091903944317052566e-01+0.000000000000000000e+00j), (9.956054687500000000e-01+0.000000000000000000e+00j), (9.115274400247679321e-01+0.000000000000000000e+00j), (1.024000000000000000e+04+0.000000000000000000e+00j), (1.280000000000000000e+02+0.000000000000000000e+00j), (4.301625041961669922e+02+0.000000000000000000e+00j)
 (9.099080875907408217e-01+0.000000000000000000e+00j), (2.126570626383303408e-01+0.000000000000000000e+00j), (9.930664062499999778e-01+0.000000000000000000e+00j), (9.018303395989725191e-01+0.000000000000000000e+00j), (1.024000000000000000e+04+0.000000000000000000e+00j), (1.280000000000000000e+02+0.000000000000000000e+00j), (4.363071479797363281e+02+0.000000000000000000e+00j)
 (9.091633265343032066e-01+0.000000000000000000e+00j), (2.110658398201258890e-01+0.000000000000000000e+00j), (9.891601562499999778e-01+0.000000000000000000e+00j), (8.921332391731772171e-01+0.000000000000000000e+00j), (1.024000000000000000e+04+0.000000000000000000e+00j), (1.280000000000000000e+02+0.000000000000000000e+00j), (4.340457081794738770e+02+0.000000000000000000e+00j)
 (9.081990396952696054e-01+0.000000000000000000e+00j), (2.121657454712212454e-01+0.000000000000000000e+00j), (9.864257812500000222e-01+0.000000000000000000e+00j), (8.824361387473818041e-01+0.000000000000000000e+00j), (1.024000000000000000e+04+0.000000000000000000e+00j), (1.280000000000000000e+02+0.000000000000000000e+00j), (4.349166970252990723e+02+0.000000000000000000e+00j)
 (9.113759207972205179e-01+0.000000000000000000e+00j), (2.109342424303380925e-01+0.000000000000000000e+00j), (9.800781250000000222e-01+0.000000000000000000e+00j), (8.727390383215863912e-01+0.000000000000000000e+00j), (1.024000000000000000e+04+0.000000000000000000e+00j), (1.280000000000000000e+02+0.000000000000000000e+00j), (4.358958415985107422e+02+0.000000000000000000e+00j)
 (9.082182733570213218e-01+0.000000000000000000e+00j), (2.128971674793045943e-01+0.000000000000000000e+00j), (9.787109375000000444e-01+0.000000000000000000e+00j), (8.630419378957909782e-01+0.000000000000000000e+00j), (1.024000000000000000e+04+0.000000000000000000e+00j), (1.280000000000000000e+02+0.000000000000000000e+00j), (4.367168207168579102e+02+0.000000000000000000e+00j)
 (9.093862643714248906e-01+0.000000000000000000e+00j), (2.114624880552072039e-01+0.000000000000000000e+00j), (9.711914062500000000e-01+0.000000000000000000e+00j), (8.533448374699955652e-01+0.000000000000000000e+00j), (1.024000000000000000e+04+0.000000000000000000e+00j), (1.280000000000000000e+02+0.000000000000000000e+00j), (4.274538040161132812e+02+0.000000000000000000e+00j)
 (9.048557469940005094e-01+0.000000000000000000e+00j), (2.171538321389239745e-01+0.000000000000000000e+00j), (9.634765625000000222e-01+0.000000000000000000e+00j), (8.436477370442001522e-01+0.000000000000000000e+00j), (1.024000000000000000e+04+0.000000000000000000e+00j), (1.280000000000000000e+02+0.000000000000000000e+00j), (4.383620963096618652e+02+0.000000000000000000e+00j)
 (9.057517526280917108e-01+0.000000000000000000e+00j), (2.140288164171982033e-01+0.000000000000000000e+00j), (9.486328124999999778e-01+0.000000000000000000e+00j), (8.339506366184047392e-01+0.000000000000000000e+00j), (1.024000000000000000e+04+0.000000000000000000e+00j), (1.280000000000000000e+02+0.000000000000000000e+00j), (4.302182526588439941e+02+0.000000000000000000e+00j)
 (9.111333513932349248e-01+0.000000000000000000e+00j), (2.102104351609219157e-01+0.000000000000000000e+00j), (9.404296875000000000e-01+0.000000000000000000e+00j), (8.242535361926093262e-01+0.000000000000000000e+00j), (1.024000000000000000e+04+0.000000000000000000e+00j), (1.280000000000000000e+02+0.000000000000000000e+00j), (4.345991520881652832e+02+0.000000000000000000e+00j)
 (9.049350004628872179e-01+0.000000000000000000e+00j), (2.153729507040955393e-01+0.000000000000000000e+00j), (9.268554687500000222e-01+0.000000000000000000e+00j), (8.145564357668139133e-01+0.000000000000000000e+00j), (1.024000000000000000e+04+0.000000000000000000e+00j), (1.280000000000000000e+02+0.000000000000000000e+00j), (4.272306566238403320e+02+0.000000000000000000e+00j)
 (9.061024612367719611e-01+0.000000000000000000e+00j), (2.152197790454241089e-01+0.000000000000000000e+00j), (9.108398437500000444e-01+0.000000000000000000e+00j), (8.048593353410185003e-01+0.000000000000000000e+00j), (1.024000000000000000e+04+0.000000000000000000e+00j), (1.280000000000000000e+02+0.000000000000000000e+00j), (4.204906675815582275e+02+0.000000000000000000e+00j)
 (9.083863199677867373e-01+0.000000000000000000e+00j), (2.098515279268054756e-01+0.000000000000000000e+00j), (8.934570312499999778e-01+0.000000000000000000e+00j), (7.951622349152231983e-01+0.000000000000000000e+00j), (1.024000000000000000e+04+0.000000000000000000e+00j), (1.280000000000000000e+02+0.000000000000000000e+00j), (4.173195030689239502e+02+0.000000000000000000e+00j)
 (9.053188080034554330e-01+0.000000000000000000e+00j), (2.168577140268016235e-01+0.000000000000000000e+00j), (8.778320312499999778e-01+0.000000000000000000e+00j), (7.854651344894277853e-01+0.000000000000000000e+00j), (1.024000000000000000e+04+0.000000000000000000e+00j), (1.280000000000000000e+02+0.000000000000000000e+00j), (4.149732542037963867e+02+0.000000000000000000e+00j)
 (9.057537596276700187e-01+0.000000000000000000e+00j), (2.148142884210693104e-01+0.000000000000000000e+00j), (8.534179687499999778e-01+0.000000000000000000e+00j), (7.757680340636323724e-01+0.000000000000000000e+00j), (1.024000000000000000e+04+0.000000000000000000e+00j), (1.280000000000000000e+02+0.000000000000000000e+00j), (4.165491921901702881e+02+0.000000000000000000e+00j)
 (9.046531569675513307e-01+0.000000000000000000e+00j), (2.174084125274127755e-01+0.000000000000000000e+00j), (8.200195312500000444e-01+0.000000000000000000e+00j), (7.660709336378369594e-01+0.000000000000000000e+00j), (1.024000000000000000e+04+0.000000000000000000e+00j), (1.280000000000000000e+02+0.000000000000000000e+00j), (4.140988497734069824e+02+0.000000000000000000e+00j)
 (9.062265979995240972e-01+0.000000000000000000e+00j), (2.173460708445926759e-01+0.000000000000000000e+00j), (7.894531249999999778e-01+0.000000000000000000e+00j), (7.563738332120415464e-01+0.000000000000000000e+00j), (1.024000000000000000e+04+0.000000000000000000e+00j), (1.280000000000000000e+02+0.000000000000000000e+00j), (4.091523413658142090e+02+0.000000000000000000e+00j)
 (9.098770120897604619e-01+0.000000000000000000e+00j), (2.084228852044680003e-01+0.000000000000000000e+00j), (7.688476562499999556e-01+0.000000000000000000e+00j), (7.466767327862461334e-01+0.000000000000000000e+00j), (1.024000000000000000e+04+0.000000000000000000e+00j), (1.280000000000000000e+02+0.000000000000000000e+00j), (4.205046064853668213e+02+0.000000000000000000e+00j)
 (9.079450215294037063e-01+0.000000000000000000e+00j), (2.115525210469323403e-01+0.000000000000000000e+00j), (7.382812500000000000e-01+0.000000000000000000e+00j), (7.369796323604507204e-01+0.000000000000000000e+00j), (1.024000000000000000e+04+0.000000000000000000e+00j), (1.280000000000000000e+02+0.000000000000000000e+00j), (4.310904078483581543e+02+0.000000000000000000e+00j)
 (9.100515919341600757e-01+0.000000000000000000e+00j), (2.079953052328880059e-01+0.000000000000000000e+00j), (7.063476562499999556e-01+0.000000000000000000e+00j), (7.272825319346553075e-01+0.000000000000000000e+00j), (1.024000000000000000e+04+0.000000000000000000e+00j), (1.280000000000000000e+02+0.000000000000000000e+00j), (4.342679450511932373e+02+0.000000000000000000e+00j)
 (9.090579654499764128e-01+0.000000000000000000e+00j), (2.100182849440329902e-01+0.000000000000000000e+00j), (6.633789062499999556e-01+0.000000000000000000e+00j), (7.175854315088598945e-01+0.000000000000000000e+00j), (1.024000000000000000e+04+0.000000000000000000e+00j), (1.280000000000000000e+02+0.000000000000000000e+00j), (4.314811227321624756e+02+0.000000000000000000e+00j)
 (9.013993752635978129e-01+0.000000000000000000e+00j), (2.181859087891354076e-01+0.000000000000000000e+00j), (6.232421875000000444e-01+0.000000000000000000e+00j), (7.078883310830644815e-01+0.000000000000000000e+00j), (1.024000000000000000e+04+0.000000000000000000e+00j), (1.280000000000000000e+02+0.000000000000000000e+00j), (4.279260239601135254e+02+0.000000000000000000e+00j)
 (9.089064809849104476e-01+0.000000000000000000e+00j), (2.083814855340687111e-01+0.000000000000000000e+00j), (5.958007812500000222e-01+0.000000000000000000e+00j), (6.981912306572690685e-01+0.000000000000000000e+00j), (1.024000000000000000e+04+0.000000000000000000e+00j), (1.280000000000000000e+02+0.000000000000000000e+00j), (4.257084894180297852e+02+0.000000000000000000e+00j)
 (9.050306652644798389e-01+0.000000000000000000e+00j), (2.135797589491630344e-01+0.000000000000000000e+00j), (5.592773437500000444e-01+0.000000000000000000e+00j), (6.884941302314736555e-01+0.000000000000000000e+00j), (1.024000000000000000e+04+0.000000000000000000e+00j), (1.280000000000000000e+02+0.000000000000000000e+00j), (4.365495343208312988e+02+0.000000000000000000e+00j)
 (9.053882974117422044e-01+0.000000000000000000e+00j), (2.175109307893053068e-01+0.000000000000000000e+00j), (5.194335937499999778e-01+0.000000000000000000e+00j), (6.787970298056782426e-01+0.000000000000000000e+00j), (1.024000000000000000e+04+0.000000000000000000e+00j), (1.280000000000000000e+02+0.000000000000000000e+00j), (4.338312153816223145e+02+0.000000000000000000e+00j)
 (9.050005586294544990e-01+0.000000000000000000e+00j), (2.159697316391403776e-01+0.000000000000000000e+00j), (4.763671875000000111e-01+0.000000000000000000e+00j), (6.690999293798828296e-01+0.000000000000000000e+00j), (1.024000000000000000e+04+0.000000000000000000e+00j), (1.280000000000000000e+02+0.000000000000000000e+00j), (4.299943315982818604e+02+0.000000000000000000e+00j)
 (9.062730512406202976e-01+0.000000000000000000e+00j), (2.118963532255838111e-01+0.000000000000000000e+00j), (4.358398437500000111e-01+0.000000000000000000e+00j), (6.594028289540874166e-01+0.000000000000000000e+00j), (1.024000000000000000e+04+0.000000000000000000e+00j), (1.280000000000000000e+02+0.000000000000000000e+00j), (4.310630908012390137e+02+0.000000000000000000e+00j)
 (9.019851141303117936e-01+0.000000000000000000e+00j), (2.191093587709073975e-01+0.000000000000000000e+00j), (4.029296875000000222e-01+0.000000000000000000e+00j), (6.497057285282920036e-01+0.000000000000000000e+00j), (1.024000000000000000e+04+0.000000000000000000e+00j), (1.280000000000000000e+02+0.000000000000000000e+00j), (4.285756933689117432e+02+0.000000000000000000e+00j)
 (9.026689641541505438e-01+0.000000000000000000e+00j), (2.172097875523000821e-01+0.000000000000000000e+00j), (3.666015624999999778e-01+0.000000000000000000e+00j), (6.400086281024965906e-01+0.000000000000000000e+00j), (1.024000000000000000e+04+0.000000000000000000e+00j), (1.280000000000000000e+02+0.000000000000000000e+00j), (4.307109761238098145e+02+0.000000000000000000e+00j)
 (1.502883032011985779e+04+0.000000000000000000e+00j), (4.144000000000000000e+03+0.000000000000000000e+00j), (8.076966367467675045e-01+5.366225020138220003e-01j), (-7.123933590138831207e-01-5.158250109432281905e-01j), (0.000000000000000000e+00+0.000000000000000000e+00j), (0.000000000000000000e+00+0.000000000000000000e+00j), (0.000000000000000000e+00+0.000000000000000000e+00j)
