9.947017392355073095e-01,1.846215032943213444e-02,1.000000000000000000e+00,1.000000000000000000e+00,1.024000000000000000e+04,1.280000000000000000e+02,3.736378335952758789e+01
9.944583358226365410e-01,2.210969722183676878e-02,9.999023437499999778e-01,9.899999999999999911e-01,1.024000000000000000e+04,1.280000000000000000e+02,4.194414663314819336e+01
9.942087770767740196e-01,2.429551225978770698e-02,9.993164062499999556e-01,9.799999999999999822e-01,1.024000000000000000e+04,1.280000000000000000e+02,1.049493656158447266e+02
9.933483336662571883e-01,2.997156881709525308e-02,9.991210937500000222e-01,9.699999999999999734e-01,1.024000000000000000e+04,1.280000000000000000e+02,1.023021883964538574e+02
9.935602016240371315e-01,2.966196493758163286e-02,9.982421875000000444e-01,9.599999999999999645e-01,1.024000000000000000e+04,1.280000000000000000e+02,5.543519020080566406e+01
9.932127743778539353e-01,3.283511027943600280e-02,9.970703125000000000e-01,9.499999999999999556e-01,1.024000000000000000e+04,1.280000000000000000e+02,5.336863470077514648e+01
9.922693432322325924e-01,3.906399457719680196e-02,9.949218749999999556e-01,9.399999999999999467e-01,1.024000000000000000e+04,1.280000000000000000e+02,7.196809697151184082e+01
9.922791927020734315e-01,3.827904049874119446e-02,9.931640625000000000e-01,9.299999999999999378e-01,1.024000000000000000e+04,1.280000000000000000e+02,1.080509996414184570e+02
9.915129196162716374e-01,4.031801300775753744e-02,9.886718749999999778e-01,9.200000000000000400e-01,1.024000000000000000e+04,1.280000000000000000e+02,9.921339225769042969e+01
9.919316613744389999e-01,3.964794456059876626e-02,9.881835937499999778e-01,9.100000000000000311e-01,1.024000000000000000e+04,1.280000000000000000e+02,9.695352602005004883e+01
9.914054201582948034e-01,3.954416591052557078e-02,9.822265624999999556e-01,9.000000000000000222e-01,1.024000000000000000e+04,1.280000000000000000e+02,1.190587325096130371e+02
9.915373515278119720e-01,4.117229722940651121e-02,9.781250000000000222e-01,8.900000000000000133e-01,1.024000000000000000e+04,1.280000000000000000e+02,9.708667469024658203e+01
9.908259229315241612e-01,4.472592614031719455e-02,9.729492187499999556e-01,8.800000000000000044e-01,1.024000000000000000e+04,1.280000000000000000e+02,8.161167860031127930e+01
9.893122112025334314e-01,5.050941196608902534e-02,9.706054687499999778e-01,8.699999999999999956e-01,1.024000000000000000e+04,1.280000000000000000e+02,1.123848686218261719e+02
9.892454156547699773e-01,5.455437013958280151e-02,9.584960937500000000e-01,8.599999999999999867e-01,1.024000000000000000e+04,1.280000000000000000e+02,1.069478583335876465e+02
9.890826052855455908e-01,5.134095405375603549e-02,9.566406250000000222e-01,8.499999999999999778e-01,1.024000000000000000e+04,1.280000000000000000e+02,1.057554895877838135e+02
9.890409482751406633e-01,5.161053012074386104e-02,9.439453125000000222e-01,8.399999999999999689e-01,1.024000000000000000e+04,1.280000000000000000e+02,9.498076605796813965e+01
9.887150050226761744e-01,5.338669546595692372e-02,9.301757812500000000e-01,8.299999999999999600e-01,1.024000000000000000e+04,1.280000000000000000e+02,1.154398097991943359e+02
9.884456189300121487e-01,5.448871569644744839e-02,9.220703125000000444e-01,8.200000000000000622e-01,1.024000000000000000e+04,1.280000000000000000e+02,1.732680699825286865e+02
9.882411507442984133e-01,5.452771382539414041e-02,9.148437499999999556e-01,8.100000000000000533e-01,1.024000000000000000e+04,1.280000000000000000e+02,1.031848742961883545e+02
9.877763159826185024e-01,5.723640335876441915e-02,8.992187499999999556e-01,8.000000000000000444e-01,1.024000000000000000e+04,1.280000000000000000e+02,1.117455487251281738e+02
9.870544456252219323e-01,5.990708109387032909e-02,8.861328124999999778e-01,7.900000000000000355e-01,1.024000000000000000e+04,1.280000000000000000e+02,1.166464686393737793e+02
9.872329997272453195e-01,5.939699605586831743e-02,8.681640625000000000e-01,7.800000000000000266e-01,1.024000000000000000e+04,1.280000000000000000e+02,1.090960452556610107e+02
9.871356991236319711e-01,5.954012059456556538e-02,8.579101562500000000e-01,7.700000000000000178e-01,1.024000000000000000e+04,1.280000000000000000e+02,9.305393838882446289e+01
9.870502282442861208e-01,5.936677591638447882e-02,8.443359375000000222e-01,7.600000000000000089e-01,1.024000000000000000e+04,1.280000000000000000e+02,1.245347557067871094e+02
9.860851107386385817e-01,6.398204381852956590e-02,8.263671875000000444e-01,7.500000000000000000e-01,1.024000000000000000e+04,1.280000000000000000e+02,1.103144760131835938e+02
9.868257488655174381e-01,6.048616462744264149e-02,8.127929687499999556e-01,7.399999999999999911e-01,1.024000000000000000e+04,1.280000000000000000e+02,1.323842513561248779e+02
9.859329113907659980e-01,5.980049746948359196e-02,7.927734374999999556e-01,7.299999999999999822e-01,1.024000000000000000e+04,1.280000000000000000e+02,1.804472181797027588e+02
9.856509577222960505e-01,6.240443262610533698e-02,7.647460937500000222e-01,7.199999999999999734e-01,1.024000000000000000e+04,1.280000000000000000e+02,2.204463467597961426e+02
9.849390761431348063e-01,6.748759217868302573e-02,7.448242187500000444e-01,7.099999999999999645e-01,1.024000000000000000e+04,1.280000000000000000e+02,9.698508787155151367e+01
9.840843062721753576e-01,6.979746967177020978e-02,7.308593749999999778e-01,6.999999999999999556e-01,1.024000000000000000e+04,1.280000000000000000e+02,1.231285419464111328e+02
9.858781979505727433e-01,6.424500999516949418e-02,7.130859375000000444e-01,6.899999999999999467e-01,1.024000000000000000e+04,1.280000000000000000e+02,9.988362026214599609e+01
9.859468423423887184e-01,6.087182003680659953e-02,6.846679687500000222e-01,6.799999999999999378e-01,1.024000000000000000e+04,1.280000000000000000e+02,1.130232512950897217e+02
9.833319682139937123e-01,7.369000910496922852e-02,6.567382812500000000e-01,6.699999999999999289e-01,1.024000000000000000e+04,1.280000000000000000e+02,1.302413187026977539e+02
9.842969126382944411e-01,6.795127446193460763e-02,6.383789062500000444e-01,6.599999999999999201e-01,1.024000000000000000e+04,1.280000000000000000e+02,8.895377850532531738e+01
3.732492615222930908e+03,2.320000000000000000e+02,-1.000000000000000000e+00,1.000000000000000000e+00,0.000000000000000000e+00,0.000000000000000000e+00,0.000000000000000000e+00
