 (9.986595995994757002e-01+0.000000000000000000e+00j), (1.792930353645041594e-02+0.000000000000000000e+00j), (7.461914062500000222e-01+0.000000000000000000e+00j), (7.832574303397497051e-01+0.000000000000000000e+00j), (1.024000000000000000e+04+0.000000000000000000e+00j), (1.280000000000000000e+02+0.000000000000000000e+00j), (3.203364944458007812e+01+0.000000000000000000e+00j)
 (9.984883471690481072e-01+0.000000000000000000e+00j), (2.187044866686452260e-02+0.000000000000000000e+00j), (7.346679687499999556e-01+0.000000000000000000e+00j), (7.832574303397497051e-01+0.000000000000000000e+00j), (1.024000000000000000e+04+0.000000000000000000e+00j), (1.280000000000000000e+02+0.000000000000000000e+00j), (3.195974564552307129e+01+0.000000000000000000e+00j)
 (9.987071370375113499e-01+0.000000000000000000e+00j), (1.238803823399165470e-02+0.000000000000000000e+00j), (7.290039062500000000e-01+0.000000000000000000e+00j), (7.832574303397497051e-01+0.000000000000000000e+00j), (1.024000000000000000e+04+0.000000000000000000e+00j), (1.280000000000000000e+02+0.000000000000000000e+00j), (3.220131707191467285e+01+0.000000000000000000e+00j)
 (9.983560942625580026e-01+0.000000000000000000e+00j), (1.576483059061702108e-02+0.000000000000000000e+00j), (7.300781250000000222e-01+0.000000000000000000e+00j), (7.832574303397497051e-01+0.000000000000000000e+00j), (1.024000000000000000e+04+0.000000000000000000e+00j), (1.280000000000000000e+02+0.000000000000000000e+00j), (3.375928354263305664e+01+0.000000000000000000e+00j)
 (9.982433471622663701e-01+0.000000000000000000e+00j), (1.064782057362859136e-02+0.000000000000000000e+00j), (7.436523437500000000e-01+0.000000000000000000e+00j), (7.832574303397497051e-01+0.000000000000000000e+00j), (1.024000000000000000e+04+0.000000000000000000e+00j), (1.280000000000000000e+02+0.000000000000000000e+00j), (3.309772300720214844e+01+0.000000000000000000e+00j)
 (9.970673815584225608e-01+0.000000000000000000e+00j), (2.212054890358403081e-02+0.000000000000000000e+00j), (7.418945312500000444e-01+0.000000000000000000e+00j), (7.832574303397497051e-01+0.000000000000000000e+00j), (1.024000000000000000e+04+0.000000000000000000e+00j), (1.280000000000000000e+02+0.000000000000000000e+00j), (3.335077762603759766e+01+0.000000000000000000e+00j)
 (9.951392575771500493e-01+0.000000000000000000e+00j), (3.045411899517199913e-02+0.000000000000000000e+00j), (7.401367187499999778e-01+0.000000000000000000e+00j), (7.832574303397497051e-01+0.000000000000000000e+00j), (1.024000000000000000e+04+0.000000000000000000e+00j), (1.280000000000000000e+02+0.000000000000000000e+00j), (3.226036381721496582e+01+0.000000000000000000e+00j)
 (9.921663260050263000e-01+0.000000000000000000e+00j), (4.134601485451304403e-02+0.000000000000000000e+00j), (7.347656249999999778e-01+0.000000000000000000e+00j), (7.832574303397497051e-01+0.000000000000000000e+00j), (1.024000000000000000e+04+0.000000000000000000e+00j), (1.280000000000000000e+02+0.000000000000000000e+00j), (3.490772581100463867e+01+0.000000000000000000e+00j)
 (9.869320711848956762e-01+0.000000000000000000e+00j), (6.210073962736994968e-02+0.000000000000000000e+00j), (7.364257812500000222e-01+0.000000000000000000e+00j), (7.832574303397497051e-01+0.000000000000000000e+00j), (1.024000000000000000e+04+0.000000000000000000e+00j), (1.280000000000000000e+02+0.000000000000000000e+00j), (3.229098558425903320e+01+0.000000000000000000e+00j)
 (9.845762987731221383e-01+0.000000000000000000e+00j), (6.891023987933592165e-02+0.000000000000000000e+00j), (7.375000000000000444e-01+0.000000000000000000e+00j), (7.832574303397497051e-01+0.000000000000000000e+00j), (1.024000000000000000e+04+0.000000000000000000e+00j), (1.280000000000000000e+02+0.000000000000000000e+00j), (3.234105324745178223e+01+0.000000000000000000e+00j)
 (9.763436406865465544e-01+0.000000000000000000e+00j), (9.033724376281232482e-02+0.000000000000000000e+00j), (7.374023437500000222e-01+0.000000000000000000e+00j), (7.832574303397497051e-01+0.000000000000000000e+00j), (1.024000000000000000e+04+0.000000000000000000e+00j), (1.280000000000000000e+02+0.000000000000000000e+00j), (3.226491904258728027e+01+0.000000000000000000e+00j)
 (9.672011447123665118e-01+0.000000000000000000e+00j), (1.034436108417190192e-01+0.000000000000000000e+00j), (7.332031249999999556e-01+0.000000000000000000e+00j), (7.832574303397497051e-01+0.000000000000000000e+00j), (1.024000000000000000e+04+0.000000000000000000e+00j), (1.280000000000000000e+02+0.000000000000000000e+00j), (3.660532569885253906e+01+0.000000000000000000e+00j)
 (9.557729845660837276e-01+0.000000000000000000e+00j), (1.183920076173756719e-01+0.000000000000000000e+00j), (7.328124999999999778e-01+0.000000000000000000e+00j), (7.832574303397497051e-01+0.000000000000000000e+00j), (1.024000000000000000e+04+0.000000000000000000e+00j), (1.280000000000000000e+02+0.000000000000000000e+00j), (3.248363971710205078e+01+0.000000000000000000e+00j)
 (9.293477392432102357e-01+0.000000000000000000e+00j), (1.531223541642199870e-01+0.000000000000000000e+00j), (7.333984375000000000e-01+0.000000000000000000e+00j), (7.832574303397497051e-01+0.000000000000000000e+00j), (1.024000000000000000e+04+0.000000000000000000e+00j), (1.280000000000000000e+02+0.000000000000000000e+00j), (3.184917902946472168e+01+0.000000000000000000e+00j)
 (8.928788352675497419e-01+0.000000000000000000e+00j), (1.909909491197913645e-01+0.000000000000000000e+00j), (7.354492187500000222e-01+0.000000000000000000e+00j), (7.832574303397497051e-01+0.000000000000000000e+00j), (1.024000000000000000e+04+0.000000000000000000e+00j), (1.280000000000000000e+02+0.000000000000000000e+00j), (3.275958824157714844e+01+0.000000000000000000e+00j)
 (8.529963824962436547e-01+0.000000000000000000e+00j), (2.267011573468405983e-01+0.000000000000000000e+00j), (7.237304687500000222e-01+0.000000000000000000e+00j), (7.832574303397497051e-01+0.000000000000000000e+00j), (1.024000000000000000e+04+0.000000000000000000e+00j), (1.280000000000000000e+02+0.000000000000000000e+00j), (3.322952055931091309e+01+0.000000000000000000e+00j)
 (8.129021795107911341e-01+0.000000000000000000e+00j), (2.473644585676922358e-01+0.000000000000000000e+00j), (7.333007812499999778e-01+0.000000000000000000e+00j), (7.832574303397497051e-01+0.000000000000000000e+00j), (1.024000000000000000e+04+0.000000000000000000e+00j), (1.280000000000000000e+02+0.000000000000000000e+00j), (3.332335853576660156e+01+0.000000000000000000e+00j)
 (5.608695704936981201e+02+0.000000000000000000e+00j), (2.320000000000000000e+02+0.000000000000000000e+00j), (8.116211951805070157e-01+5.256710223808868099e-01j), (-6.774465557687017192e-01-5.052979699035704542e-01j), (0.000000000000000000e+00+0.000000000000000000e+00j), (0.000000000000000000e+00+0.000000000000000000e+00j), (0.000000000000000000e+00+0.000000000000000000e+00j)
