9.715166578543030784e-01,8.474628828181278439e-02,9.435546875000000444e-01,9.656713736125674963e-01,1.024000000000000000e+04,1.280000000000000000e+02,4.300523781776428223e+01
9.714989651561605211e-01,8.338551484309947304e-02,9.391601562500000444e-01,9.560146598764418524e-01,1.024000000000000000e+04,1.280000000000000000e+02,5.616218233108520508e+01
9.706971452452252125e-01,8.646652991655373599e-02,9.339843749999999778e-01,9.463579461403160975e-01,1.024000000000000000e+04,1.280000000000000000e+02,4.167004466056823730e+01
9.702610504417212844e-01,8.818061757035899895e-02,9.216796874999999556e-01,9.367012324041904536e-01,1.024000000000000000e+04,1.280000000000000000e+02,3.719528460502624512e+01
9.710276249620344302e-01,8.355905711064103014e-02,9.161132812500000222e-01,9.270445186680648098e-01,1.024000000000000000e+04,1.280000000000000000e+02,5.789308643341064453e+01
9.697498054629453135e-01,9.167524763562644174e-02,9.098632812500000444e-01,9.173878049319390549e-01,1.024000000000000000e+04,1.280000000000000000e+02,1.432631473541259766e+02
9.705857610393076040e-01,9.067858606458999160e-02,8.994140625000000000e-01,9.077310911958134110e-01,1.024000000000000000e+04,1.280000000000000000e+02,3.357416844367980957e+01
9.707643095099700581e-01,8.612660824723045172e-02,8.897460937500000222e-01,8.980743774596876561e-01,1.024000000000000000e+04,1.280000000000000000e+02,3.336032962799072266e+01
9.703106298206990443e-01,9.070078760130248496e-02,8.767578124999999556e-01,8.884176637235621232e-01,1.024000000000000000e+04,1.280000000000000000e+02,5.670717215538024902e+01
9.708038508556932067e-01,8.701156097409060153e-02,8.722656250000000444e-01,8.787609499874364793e-01,1.024000000000000000e+04,1.280000000000000000e+02,3.751839780807495117e+01
9.705523027789522139e-01,8.844959344151596958e-02,8.577148437499999556e-01,8.691042362513107244e-01,1.024000000000000000e+04,1.280000000000000000e+02,5.040525817871093750e+01
9.724490792376869752e-01,8.431060474850074482e-02,8.550781250000000222e-01,8.594475225151850806e-01,1.024000000000000000e+04,1.280000000000000000e+02,5.379675412178039551e+01
9.695447533253599426e-01,9.310280511965508821e-02,8.420898437499999556e-01,8.497908087790594367e-01,1.024000000000000000e+04,1.280000000000000000e+02,3.830388951301574707e+01
9.709416464659152979e-01,8.652097573618791615e-02,8.262695312500000222e-01,8.401340950429336818e-01,1.024000000000000000e+04,1.280000000000000000e+02,3.492429208755493164e+01
9.716878507760854378e-01,8.532538578937505502e-02,8.219726562500000444e-01,8.304773813068080379e-01,1.024000000000000000e+04,1.280000000000000000e+02,5.198334074020385742e+01
9.728656495309794261e-01,7.949967592711194853e-02,8.117187500000000444e-01,8.208206675706823940e-01,1.024000000000000000e+04,1.280000000000000000e+02,3.492589640617370605e+01
9.721110684233571497e-01,8.341873433587607134e-02,8.042968750000000222e-01,8.111639538345566391e-01,1.024000000000000000e+04,1.280000000000000000e+02,3.959114885330200195e+01
9.717504240921385206e-01,8.484836659254971214e-02,7.826171874999999778e-01,8.015072400984309953e-01,1.024000000000000000e+04,1.280000000000000000e+02,3.931198859214782715e+01
9.722339082235851304e-01,8.270609809782800137e-02,7.611328124999999778e-01,7.918505263623054624e-01,1.024000000000000000e+04,1.280000000000000000e+02,7.171259307861328125e+01
9.711492763076420287e-01,8.594413526649267998e-02,7.629882812499999556e-01,7.821938126261797075e-01,1.024000000000000000e+04,1.280000000000000000e+02,5.392834258079528809e+01
9.728432635631160119e-01,8.305693566884246593e-02,7.338867187500000000e-01,7.725370988900540636e-01,1.024000000000000000e+04,1.280000000000000000e+02,3.636265087127685547e+01
9.726912215932219663e-01,8.065981239103377221e-02,7.332031249999999556e-01,7.628803851539283087e-01,1.024000000000000000e+04,1.280000000000000000e+02,3.956017494201660156e+01
9.727138434021631586e-01,8.353554607169257074e-02,7.238281250000000444e-01,7.532236714178026649e-01,1.024000000000000000e+04,1.280000000000000000e+02,3.509699296951293945e+01
9.720601239883445155e-01,8.570215282746437846e-02,7.028320312500000444e-01,7.435669576816770210e-01,1.024000000000000000e+04,1.280000000000000000e+02,3.832789397239685059e+01
9.724671475261347231e-01,8.364015801951170392e-02,6.918945312500000000e-01,7.339102439455512661e-01,1.024000000000000000e+04,1.280000000000000000e+02,5.053354740142822266e+01
9.737587661284489160e-01,8.154710543193539884e-02,6.669921875000000000e-01,7.242535302094256222e-01,1.024000000000000000e+04,1.280000000000000000e+02,3.323394536972045898e+01
9.733058298997039337e-01,8.087378942828982176e-02,6.573242187500000222e-01,7.145968164732999783e-01,1.024000000000000000e+04,1.280000000000000000e+02,3.020466613769531250e+01
9.713980592164943584e-01,8.558347848655167844e-02,6.495117187500000222e-01,7.049401027371742234e-01,1.024000000000000000e+04,1.280000000000000000e+02,3.422818779945373535e+01
9.729767370447883756e-01,8.216284374879795349e-02,6.226562500000000222e-01,6.952833890010485796e-01,1.024000000000000000e+04,1.280000000000000000e+02,3.949258756637573242e+01
9.728530360264810994e-01,8.010231706847820154e-02,6.058593749999999778e-01,6.856266752649229357e-01,1.024000000000000000e+04,1.280000000000000000e+02,3.617513298988342285e+01
9.724907351928460120e-01,8.239708057299861832e-02,6.047851562499999556e-01,6.759699615287971808e-01,1.024000000000000000e+04,1.280000000000000000e+02,3.420854783058166504e+01
9.741158781499956731e-01,7.648558439680371024e-02,5.849609375000000000e-01,6.663132477926715369e-01,1.024000000000000000e+04,1.280000000000000000e+02,4.003886365890502930e+01
9.718274595001499261e-01,8.386937523569473751e-02,5.762695312500000222e-01,6.566565340565457820e-01,1.024000000000000000e+04,1.280000000000000000e+02,3.929235625267028809e+01
9.725381577574608860e-01,8.547807458101989997e-02,5.560546874999999778e-01,6.469998203204201381e-01,1.024000000000000000e+04,1.280000000000000000e+02,3.168168163299560547e+01
9.739743210581531807e-01,7.781872143995846591e-02,5.402343750000000444e-01,6.373431065842944943e-01,1.024000000000000000e+04,1.280000000000000000e+02,3.175804853439331055e+01
1.559742211580276489e+03,0.000000000000000000e+00,0.000000000000000000e+00,0.000000000000000000e+00,0.000000000000000000e+00,0.000000000000000000e+00,0.000000000000000000e+00
