9.892804958383814018e-01,5.049879051544189923e-02,9.875976562499999556e-01,9.899999999999999911e-01,1.024000000000000000e+04,1.280000000000000000e+02,9.457507896423339844e+01
9.888238589504720899e-01,5.509428087370201593e-02,9.857421874999999778e-01,9.800999999999999712e-01,1.024000000000000000e+04,1.280000000000000000e+02,7.174156570434570312e+01
9.878850926625662998e-01,5.858345207667289140e-02,9.889648437500000444e-01,9.701999999999999513e-01,1.024000000000000000e+04,1.280000000000000000e+02,8.430737352371215820e+01
9.894694635971138519e-01,5.055206216661108781e-02,9.896484374999999778e-01,9.602999999999999314e-01,1.024000000000000000e+04,1.280000000000000000e+02,7.617550516128540039e+01
9.897745342966388638e-01,4.791780767490377152e-02,9.873046875000000000e-01,9.503999999999999115e-01,1.024000000000000000e+04,1.280000000000000000e+02,7.758478474617004395e+01
9.896836158505468717e-01,4.877111443514525746e-02,9.854492187500000222e-01,9.405000000000000027e-01,1.024000000000000000e+04,1.280000000000000000e+02,9.139026236534118652e+01
9.891650330178198836e-01,5.160804367146382132e-02,9.886718749999999778e-01,9.305999999999999828e-01,1.024000000000000000e+04,1.280000000000000000e+02,7.809492182731628418e+01
9.894559220061187599e-01,5.108260358024667436e-02,9.854492187500000222e-01,9.206999999999999629e-01,1.024000000000000000e+04,1.280000000000000000e+02,1.019117362499237061e+02
9.887799237267007602e-01,5.203700710916940586e-02,9.853515625000000000e-01,9.108000000000000540e-01,1.024000000000000000e+04,1.280000000000000000e+02,1.196665260791778564e+02
9.901638742467430143e-01,4.571226535387078876e-02,9.839843750000000222e-01,9.009000000000000341e-01,1.024000000000000000e+04,1.280000000000000000e+02,9.444028496742248535e+01
9.890422813787422829e-01,5.352593533965289974e-02,9.833984375000000000e-01,8.910000000000000142e-01,1.024000000000000000e+04,1.280000000000000000e+02,1.176497995853424072e+02
9.896069778347349466e-01,4.922674738697004754e-02,9.764648437499999778e-01,8.810999999999999943e-01,1.024000000000000000e+04,1.280000000000000000e+02,1.030598795413970947e+02
9.882383373038391428e-01,5.459700680380916160e-02,9.769531249999999778e-01,8.711999999999999744e-01,1.024000000000000000e+04,1.280000000000000000e+02,1.141135640144348145e+02
9.885486092748865250e-01,5.574412058360057182e-02,9.730468749999999778e-01,8.612999999999999545e-01,1.024000000000000000e+04,1.280000000000000000e+02,9.579658460617065430e+01
9.898373208791683142e-01,4.683950365025538881e-02,9.707031250000000000e-01,8.513999999999999346e-01,1.024000000000000000e+04,1.280000000000000000e+02,9.587799215316772461e+01
9.894043032206627508e-01,5.164797803641998919e-02,9.626953124999999556e-01,8.415000000000000258e-01,1.024000000000000000e+04,1.280000000000000000e+02,9.276196265220642090e+01
9.891310168940896652e-01,5.129820532682110440e-02,9.604492187500000000e-01,8.316000000000000059e-01,1.024000000000000000e+04,1.280000000000000000e+02,8.356937217712402344e+01
9.889485937110448210e-01,5.379726666881060743e-02,9.542968750000000444e-01,8.216999999999999860e-01,1.024000000000000000e+04,1.280000000000000000e+02,7.631671309471130371e+01
9.884888629786080516e-01,5.547233548081695331e-02,9.466796874999999778e-01,8.118000000000000771e-01,1.024000000000000000e+04,1.280000000000000000e+02,9.685014176368713379e+01
9.898470020543114201e-01,5.047527839763448626e-02,9.428710937500000000e-01,8.019000000000000572e-01,1.024000000000000000e+04,1.280000000000000000e+02,1.177628052234649658e+02
9.897063801779090175e-01,5.064706132930373722e-02,9.347656250000000444e-01,7.920000000000000373e-01,1.024000000000000000e+04,1.280000000000000000e+02,9.979317402839660645e+01
9.897258835543165656e-01,5.105102843086643805e-02,9.236328124999999556e-01,7.821000000000000174e-01,1.024000000000000000e+04,1.280000000000000000e+02,6.971280407905578613e+01
9.897027507942767199e-01,4.996060337160827119e-02,9.136718750000000222e-01,7.721999999999999975e-01,1.024000000000000000e+04,1.280000000000000000e+02,1.129298903942108154e+02
9.896055864336013030e-01,4.992549259204905748e-02,9.045898437499999556e-01,7.622999999999999776e-01,1.024000000000000000e+04,1.280000000000000000e+02,9.235198116302490234e+01
9.896977358581029449e-01,4.972814750566272035e-02,8.967773437499999556e-01,7.523999999999999577e-01,1.024000000000000000e+04,1.280000000000000000e+02,9.055503535270690918e+01
9.895121613333305310e-01,5.105828606456872670e-02,8.843750000000000222e-01,7.424999999999999378e-01,1.024000000000000000e+04,1.280000000000000000e+02,7.003994131088256836e+01
9.890899536097785827e-01,5.597670701695980217e-02,8.684570312499999556e-01,7.326000000000000290e-01,1.024000000000000000e+04,1.280000000000000000e+02,1.087707731723785400e+02
9.903849630693033479e-01,4.644161335157433873e-02,8.634765625000000444e-01,7.227000000000000091e-01,1.024000000000000000e+04,1.280000000000000000e+02,1.021625921726226807e+02
9.899976098193959961e-01,4.674768953024222018e-02,8.439453125000000444e-01,7.127999999999999892e-01,1.024000000000000000e+04,1.280000000000000000e+02,7.333512282371520996e+01
9.892090751754871736e-01,5.454734649991746509e-02,8.273437500000000444e-01,7.028999999999999693e-01,1.024000000000000000e+04,1.280000000000000000e+02,9.635009956359863281e+01
9.907393423414632139e-01,4.133619968274690470e-02,8.199218750000000222e-01,6.929999999999999494e-01,1.024000000000000000e+04,1.280000000000000000e+02,7.883540749549865723e+01
9.903337174517915509e-01,4.814344561424525187e-02,8.000000000000000444e-01,6.830999999999999295e-01,1.024000000000000000e+04,1.280000000000000000e+02,6.510174560546875000e+01
9.904626916260400593e-01,4.811542117893082005e-02,7.805664062499999556e-01,6.731999999999999096e-01,1.024000000000000000e+04,1.280000000000000000e+02,9.200223779678344727e+01
9.909481281597231073e-01,4.448029049600339679e-02,7.633789062500000444e-01,6.632999999999998897e-01,1.024000000000000000e+04,1.280000000000000000e+02,7.068666744232177734e+01
9.909843489012962747e-01,4.226745928036298311e-02,7.458007812500000444e-01,6.533999999999998698e-01,1.024000000000000000e+04,1.280000000000000000e+02,6.611524534225463867e+01
3.172754271745681763e+03,2.320000000000000000e+02,-1.000000000000000000e+00,1.000000000000000000e+00,0.000000000000000000e+00,0.000000000000000000e+00,0.000000000000000000e+00
