 (9.994356756199743730e-01+0.000000000000000000e+00j), (9.313406564973892091e-03+0.000000000000000000e+00j), (9.893554687500000222e-01+0.000000000000000000e+00j), (9.711222161497533589e-01+0.000000000000000000e+00j), (1.024000000000000000e+04+0.000000000000000000e+00j), (1.280000000000000000e+02+0.000000000000000000e+00j), (3.603894877433776855e+01+0.000000000000000000e+00j)
 (9.992599791358879324e-01+0.000000000000000000e+00j), (1.112875524102385771e-02+0.000000000000000000e+00j), (9.916992187500000000e-01+0.000000000000000000e+00j), (9.711222161497533589e-01+0.000000000000000000e+00j), (1.024000000000000000e+04+0.000000000000000000e+00j), (1.280000000000000000e+02+0.000000000000000000e+00j), (3.574729037284851074e+01+0.000000000000000000e+00j)
 (9.985430772697814206e-01+0.000000000000000000e+00j), (2.269389444994390423e-02+0.000000000000000000e+00j), (9.916015624999999778e-01+0.000000000000000000e+00j), (9.711222161497533589e-01+0.000000000000000000e+00j), (1.024000000000000000e+04+0.000000000000000000e+00j), (1.280000000000000000e+02+0.000000000000000000e+00j), (3.695904684066772461e+01+0.000000000000000000e+00j)
 (9.982742561171864537e-01+0.000000000000000000e+00j), (2.082332442215200849e-02+0.000000000000000000e+00j), (9.912109375000000000e-01+0.000000000000000000e+00j), (9.711222161497533589e-01+0.000000000000000000e+00j), (1.024000000000000000e+04+0.000000000000000000e+00j), (1.280000000000000000e+02+0.000000000000000000e+00j), (3.575753235816955566e+01+0.000000000000000000e+00j)
 (9.977691513784143762e-01+0.000000000000000000e+00j), (1.839100034272963743e-02+0.000000000000000000e+00j), (9.910156249999999556e-01+0.000000000000000000e+00j), (9.711222161497533589e-01+0.000000000000000000e+00j), (1.024000000000000000e+04+0.000000000000000000e+00j), (1.280000000000000000e+02+0.000000000000000000e+00j), (3.709453797340393066e+01+0.000000000000000000e+00j)
 (9.958495273248012536e-01+0.000000000000000000e+00j), (2.862751791430221196e-02+0.000000000000000000e+00j), (9.912109375000000000e-01+0.000000000000000000e+00j), (9.711222161497533589e-01+0.000000000000000000e+00j), (1.024000000000000000e+04+0.000000000000000000e+00j), (1.280000000000000000e+02+0.000000000000000000e+00j), (3.668641114234924316e+01+0.000000000000000000e+00j)
 (9.931984463869809598e-01+0.000000000000000000e+00j), (4.263787340396138492e-02+0.000000000000000000e+00j), (9.920898437499999778e-01+0.000000000000000000e+00j), (9.711222161497533589e-01+0.000000000000000000e+00j), (1.024000000000000000e+04+0.000000000000000000e+00j), (1.280000000000000000e+02+0.000000000000000000e+00j), (3.605823135375976562e+01+0.000000000000000000e+00j)
 (9.908588553927599740e-01+0.000000000000000000e+00j), (5.236580669075877048e-02+0.000000000000000000e+00j), (9.898437500000000222e-01+0.000000000000000000e+00j), (9.711222161497533589e-01+0.000000000000000000e+00j), (1.024000000000000000e+04+0.000000000000000000e+00j), (1.280000000000000000e+02+0.000000000000000000e+00j), (3.584540915489196777e+01+0.000000000000000000e+00j)
 (9.885159442555545573e-01+0.000000000000000000e+00j), (6.273852475842291165e-02+0.000000000000000000e+00j), (9.914062500000000444e-01+0.000000000000000000e+00j), (9.711222161497533589e-01+0.000000000000000000e+00j), (1.024000000000000000e+04+0.000000000000000000e+00j), (1.280000000000000000e+02+0.000000000000000000e+00j), (3.596333312988281250e+01+0.000000000000000000e+00j)
 (9.844024518774696642e-01+0.000000000000000000e+00j), (7.561745607674598413e-02+0.000000000000000000e+00j), (9.903320312500000222e-01+0.000000000000000000e+00j), (9.711222161497533589e-01+0.000000000000000000e+00j), (1.024000000000000000e+04+0.000000000000000000e+00j), (1.280000000000000000e+02+0.000000000000000000e+00j), (3.592824935913085938e+01+0.000000000000000000e+00j)
 (9.800340201668485962e-01+0.000000000000000000e+00j), (8.209146212390482089e-02+0.000000000000000000e+00j), (9.912109375000000000e-01+0.000000000000000000e+00j), (9.711222161497533589e-01+0.000000000000000000e+00j), (1.024000000000000000e+04+0.000000000000000000e+00j), (1.280000000000000000e+02+0.000000000000000000e+00j), (3.547509098052978516e+01+0.000000000000000000e+00j)
 (9.744492728888596300e-01+0.000000000000000000e+00j), (9.141094292973014901e-02+0.000000000000000000e+00j), (9.915039062499999556e-01+0.000000000000000000e+00j), (9.711222161497533589e-01+0.000000000000000000e+00j), (1.024000000000000000e+04+0.000000000000000000e+00j), (1.280000000000000000e+02+0.000000000000000000e+00j), (3.581586289405822754e+01+0.000000000000000000e+00j)
 (9.586226322256407029e-01+0.000000000000000000e+00j), (1.157505516162851827e-01+0.000000000000000000e+00j), (9.887695312500000000e-01+0.000000000000000000e+00j), (9.711222161497533589e-01+0.000000000000000000e+00j), (1.024000000000000000e+04+0.000000000000000000e+00j), (1.280000000000000000e+02+0.000000000000000000e+00j), (3.569286751747131348e+01+0.000000000000000000e+00j)
 (9.326068710833669284e-01+0.000000000000000000e+00j), (1.448404570696901761e-01+0.000000000000000000e+00j), (9.896484374999999778e-01+0.000000000000000000e+00j), (9.711222161497533589e-01+0.000000000000000000e+00j), (1.024000000000000000e+04+0.000000000000000000e+00j), (1.280000000000000000e+02+0.000000000000000000e+00j), (3.536760210990905762e+01+0.000000000000000000e+00j)
 (8.884001522724324085e-01+0.000000000000000000e+00j), (1.952244814245738536e-01+0.000000000000000000e+00j), (9.896484374999999778e-01+0.000000000000000000e+00j), (9.711222161497533589e-01+0.000000000000000000e+00j), (1.024000000000000000e+04+0.000000000000000000e+00j), (1.280000000000000000e+02+0.000000000000000000e+00j), (3.793309402465820312e+01+0.000000000000000000e+00j)
 (8.445160244478641109e-01+0.000000000000000000e+00j), (2.289718452001650306e-01+0.000000000000000000e+00j), (9.903320312500000222e-01+0.000000000000000000e+00j), (9.711222161497533589e-01+0.000000000000000000e+00j), (1.024000000000000000e+04+0.000000000000000000e+00j), (1.280000000000000000e+02+0.000000000000000000e+00j), (3.549913549423217773e+01+0.000000000000000000e+00j)
 (8.026837933904242828e-01+0.000000000000000000e+00j), (2.531109389106857566e-01+0.000000000000000000e+00j), (9.911132812499999778e-01+0.000000000000000000e+00j), (9.711222161497533589e-01+0.000000000000000000e+00j), (1.024000000000000000e+04+0.000000000000000000e+00j), (1.280000000000000000e+02+0.000000000000000000e+00j), (3.586266541481018066e+01+0.000000000000000000e+00j)
 (6.139129192829132080e+02+0.000000000000000000e+00j), (2.320000000000000000e+02+0.000000000000000000e+00j), (8.057343575298977489e-01+5.420982418302895400e-01j), (-7.298667606364737104e-01-5.210885314630571141e-01j), (0.000000000000000000e+00+0.000000000000000000e+00j), (0.000000000000000000e+00+0.000000000000000000e+00j), (0.000000000000000000e+00+0.000000000000000000e+00j)
