9.978622719134117025e-01,2.946303712025956714e-02,9.979492187499999778e-01,9.603999999999999204e-01,1.024000000000000000e+04,1.280000000000000000e+02,3.754341578483581543e+01
9.982067705140631464e-01,2.739906451509586949e-02,9.978515624999999556e-01,9.603999999999999204e-01,1.024000000000000000e+04,1.280000000000000000e+02,3.788962149620056152e+01
9.976489365083565097e-01,3.245115638899740557e-02,9.984374999999999778e-01,9.603999999999999204e-01,1.024000000000000000e+04,1.280000000000000000e+02,3.760936450958251953e+01
9.977068405112307081e-01,3.110304360474737753e-02,9.973632812499999556e-01,9.603999999999999204e-01,1.024000000000000000e+04,1.280000000000000000e+02,3.761502718925476074e+01
9.972379540347879878e-01,3.468795163956774757e-02,9.981445312500000222e-01,9.603999999999999204e-01,1.024000000000000000e+04,1.280000000000000000e+02,3.772736692428588867e+01
9.974799147348359929e-01,3.188350772002317146e-02,9.987304687500000444e-01,9.603999999999999204e-01,1.024000000000000000e+04,1.280000000000000000e+02,3.849363207817077637e+01
9.978840537389421783e-01,2.527364541106121715e-02,9.988281249999999556e-01,9.603999999999999204e-01,1.024000000000000000e+04,1.280000000000000000e+02,3.740644264221191406e+01
9.976319635577648448e-01,2.546014743616546033e-02,9.983398437499999556e-01,9.603999999999999204e-01,1.024000000000000000e+04,1.280000000000000000e+02,3.800926113128662109e+01
9.963538277302753654e-01,3.463321275226829976e-02,9.982421875000000444e-01,9.603999999999999204e-01,1.024000000000000000e+04,1.280000000000000000e+02,3.779334545135498047e+01
9.954833940540190884e-01,3.362233549708695118e-02,9.985351562500000000e-01,9.603999999999999204e-01,1.024000000000000000e+04,1.280000000000000000e+02,3.952701210975646973e+01
9.929543389412366361e-01,3.402932130591426046e-02,9.984374999999999778e-01,9.603999999999999204e-01,1.024000000000000000e+04,1.280000000000000000e+02,3.800201702117919922e+01
9.862737368422089812e-01,5.081753448351596786e-02,9.984374999999999778e-01,9.603999999999999204e-01,1.024000000000000000e+04,1.280000000000000000e+02,3.846797442436218262e+01
9.735430289353396160e-01,7.037009444503977695e-02,9.981445312500000222e-01,9.603999999999999204e-01,1.024000000000000000e+04,1.280000000000000000e+02,3.988701248168945312e+01
9.431472962631587409e-01,1.188070844086939332e-01,9.980468750000000000e-01,9.603999999999999204e-01,1.024000000000000000e+04,1.280000000000000000e+02,3.872478556632995605e+01
8.940635683731297245e-01,1.807176806713808037e-01,9.987304687500000444e-01,9.603999999999999204e-01,1.024000000000000000e+04,1.280000000000000000e+02,3.970584511756896973e+01
8.398587416522271809e-01,2.323880782291896929e-01,9.974609374999999778e-01,9.603999999999999204e-01,1.024000000000000000e+04,1.280000000000000000e+02,3.864827394485473633e+01
8.026966426579068559e-01,2.491529988210385571e-01,9.975585937500000000e-01,9.603999999999999204e-01,1.024000000000000000e+04,1.280000000000000000e+02,3.721671414375305176e+01
6.504590814113616943e+02,2.320000000000000000e+02,-1.000000000000000000e+00,1.000000000000000000e+00,0.000000000000000000e+00,0.000000000000000000e+00,0.000000000000000000e+00
