 (9.665139296411585645e-01+0.000000000000000000e+00j), (1.008767505596507158e-01+0.000000000000000000e+00j), (9.381835937500000444e-01+0.000000000000000000e+00j), (9.656713736125674963e-01+0.000000000000000000e+00j), (1.024000000000000000e+04+0.000000000000000000e+00j), (1.280000000000000000e+02+0.000000000000000000e+00j), (7.209787750244140625e+01+0.000000000000000000e+00j)
 (9.651886309326522806e-01+0.000000000000000000e+00j), (1.044834345487667820e-01+0.000000000000000000e+00j), (9.288085937500000222e-01+0.000000000000000000e+00j), (9.560146598764418524e-01+0.000000000000000000e+00j), (1.024000000000000000e+04+0.000000000000000000e+00j), (1.280000000000000000e+02+0.000000000000000000e+00j), (6.509371471405029297e+01+0.000000000000000000e+00j)
 (9.673011387541544659e-01+0.000000000000000000e+00j), (9.998693132819570784e-02+0.000000000000000000e+00j), (9.246093749999999556e-01+0.000000000000000000e+00j), (9.463579461403160975e-01+0.000000000000000000e+00j), (1.024000000000000000e+04+0.000000000000000000e+00j), (1.280000000000000000e+02+0.000000000000000000e+00j), (9.462239193916320801e+01+0.000000000000000000e+00j)
 (9.652886928695498803e-01+0.000000000000000000e+00j), (1.029047629372547984e-01+0.000000000000000000e+00j), (9.200195312500000222e-01+0.000000000000000000e+00j), (9.367012324041904536e-01+0.000000000000000000e+00j), (1.024000000000000000e+04+0.000000000000000000e+00j), (1.280000000000000000e+02+0.000000000000000000e+00j), (9.439185166358947754e+01+0.000000000000000000e+00j)
 (9.682909932200324254e-01+0.000000000000000000e+00j), (9.890611456351569575e-02+0.000000000000000000e+00j), (9.139648437499999778e-01+0.000000000000000000e+00j), (9.270445186680648098e-01+0.000000000000000000e+00j), (1.024000000000000000e+04+0.000000000000000000e+00j), (1.280000000000000000e+02+0.000000000000000000e+00j), (9.555950951576232910e+01+0.000000000000000000e+00j)
 (9.658124993784517054e-01+0.000000000000000000e+00j), (1.041966843884701288e-01+0.000000000000000000e+00j), (9.092773437500000222e-01+0.000000000000000000e+00j), (9.173878049319390549e-01+0.000000000000000000e+00j), (1.024000000000000000e+04+0.000000000000000000e+00j), (1.280000000000000000e+02+0.000000000000000000e+00j), (1.054991924762725830e+02+0.000000000000000000e+00j)
 (9.659974453520188131e-01+0.000000000000000000e+00j), (9.949541810878444192e-02+0.000000000000000000e+00j), (8.938476562499999556e-01+0.000000000000000000e+00j), (9.077310911958134110e-01+0.000000000000000000e+00j), (1.024000000000000000e+04+0.000000000000000000e+00j), (1.280000000000000000e+02+0.000000000000000000e+00j), (6.764819788932800293e+01+0.000000000000000000e+00j)
 (9.673671258571493459e-01+0.000000000000000000e+00j), (9.760544333829472563e-02+0.000000000000000000e+00j), (8.873046875000000222e-01+0.000000000000000000e+00j), (8.980743774596876561e-01+0.000000000000000000e+00j), (1.024000000000000000e+04+0.000000000000000000e+00j), (1.280000000000000000e+02+0.000000000000000000e+00j), (6.057508254051208496e+01+0.000000000000000000e+00j)
 (9.659895195618130037e-01+0.000000000000000000e+00j), (1.007957081572147806e-01+0.000000000000000000e+00j), (8.761718750000000444e-01+0.000000000000000000e+00j), (8.884176637235621232e-01+0.000000000000000000e+00j), (1.024000000000000000e+04+0.000000000000000000e+00j), (1.280000000000000000e+02+0.000000000000000000e+00j), (6.892359495162963867e+01+0.000000000000000000e+00j)
 (9.667870232949287157e-01+0.000000000000000000e+00j), (1.008744507263396178e-01+0.000000000000000000e+00j), (8.732421875000000444e-01+0.000000000000000000e+00j), (8.787609499874364793e-01+0.000000000000000000e+00j), (1.024000000000000000e+04+0.000000000000000000e+00j), (1.280000000000000000e+02+0.000000000000000000e+00j), (9.699947547912597656e+01+0.000000000000000000e+00j)
 (9.655967613065252753e-01+0.000000000000000000e+00j), (1.046789936954931333e-01+0.000000000000000000e+00j), (8.549804687500000000e-01+0.000000000000000000e+00j), (8.691042362513107244e-01+0.000000000000000000e+00j), (1.024000000000000000e+04+0.000000000000000000e+00j), (1.280000000000000000e+02+0.000000000000000000e+00j), (6.585702252388000488e+01+0.000000000000000000e+00j)
 (9.671698206999316261e-01+0.000000000000000000e+00j), (1.011366835618036503e-01+0.000000000000000000e+00j), (8.500976562500000000e-01+0.000000000000000000e+00j), (8.594475225151850806e-01+0.000000000000000000e+00j), (1.024000000000000000e+04+0.000000000000000000e+00j), (1.280000000000000000e+02+0.000000000000000000e+00j), (6.909771370887756348e+01+0.000000000000000000e+00j)
 (9.681655909623213541e-01+0.000000000000000000e+00j), (9.679823673091964009e-02+0.000000000000000000e+00j), (8.350585937500000222e-01+0.000000000000000000e+00j), (8.497908087790594367e-01+0.000000000000000000e+00j), (1.024000000000000000e+04+0.000000000000000000e+00j), (1.280000000000000000e+02+0.000000000000000000e+00j), (7.903584527969360352e+01+0.000000000000000000e+00j)
 (9.683571153887375882e-01+0.000000000000000000e+00j), (9.606274311066329008e-02+0.000000000000000000e+00j), (8.316406250000000222e-01+0.000000000000000000e+00j), (8.401340950429336818e-01+0.000000000000000000e+00j), (1.024000000000000000e+04+0.000000000000000000e+00j), (1.280000000000000000e+02+0.000000000000000000e+00j), (5.655798196792602539e+01+0.000000000000000000e+00j)
 (9.692821708759884469e-01+0.000000000000000000e+00j), (9.491222600919646535e-02+0.000000000000000000e+00j), (8.133789062499999778e-01+0.000000000000000000e+00j), (8.304773813068080379e-01+0.000000000000000000e+00j), (1.024000000000000000e+04+0.000000000000000000e+00j), (1.280000000000000000e+02+0.000000000000000000e+00j), (5.022736570835113525e+02+0.000000000000000000e+00j)
 (9.674320867282080183e-01+0.000000000000000000e+00j), (9.980874325336490382e-02+0.000000000000000000e+00j), (8.061523437500000000e-01+0.000000000000000000e+00j), (8.208206675706823940e-01+0.000000000000000000e+00j), (1.024000000000000000e+04+0.000000000000000000e+00j), (1.280000000000000000e+02+0.000000000000000000e+00j), (6.902475786209106445e+01+0.000000000000000000e+00j)
 (9.686493763502418419e-01+0.000000000000000000e+00j), (9.585759048304844099e-02+0.000000000000000000e+00j), (7.939453125000000000e-01+0.000000000000000000e+00j), (8.111639538345566391e-01+0.000000000000000000e+00j), (1.024000000000000000e+04+0.000000000000000000e+00j), (1.280000000000000000e+02+0.000000000000000000e+00j), (2.514735796451568604e+02+0.000000000000000000e+00j)
 (9.691790011106365954e-01+0.000000000000000000e+00j), (9.444475126106234575e-02+0.000000000000000000e+00j), (7.791992187499999778e-01+0.000000000000000000e+00j), (8.015072400984309953e-01+0.000000000000000000e+00j), (1.024000000000000000e+04+0.000000000000000000e+00j), (1.280000000000000000e+02+0.000000000000000000e+00j), (7.908333706855773926e+01+0.000000000000000000e+00j)
 (9.679830175515048429e-01+0.000000000000000000e+00j), (1.006933252775938648e-01+0.000000000000000000e+00j), (7.565429687500000444e-01+0.000000000000000000e+00j), (7.918505263623054624e-01+0.000000000000000000e+00j), (1.024000000000000000e+04+0.000000000000000000e+00j), (1.280000000000000000e+02+0.000000000000000000e+00j), (1.647829232215881348e+02+0.000000000000000000e+00j)
 (9.673877154403081047e-01+0.000000000000000000e+00j), (9.888402542769754444e-02+0.000000000000000000e+00j), (7.485351562500000000e-01+0.000000000000000000e+00j), (7.821938126261797075e-01+0.000000000000000000e+00j), (1.024000000000000000e+04+0.000000000000000000e+00j), (1.280000000000000000e+02+0.000000000000000000e+00j), (7.229336714744567871e+01+0.000000000000000000e+00j)
 (9.693550226514349166e-01+0.000000000000000000e+00j), (9.467571084474797616e-02+0.000000000000000000e+00j), (7.338867187500000000e-01+0.000000000000000000e+00j), (7.725370988900540636e-01+0.000000000000000000e+00j), (1.024000000000000000e+04+0.000000000000000000e+00j), (1.280000000000000000e+02+0.000000000000000000e+00j), (9.665697193145751953e+01+0.000000000000000000e+00j)
 (9.690280477035079221e-01+0.000000000000000000e+00j), (9.302536025986124502e-02+0.000000000000000000e+00j), (7.265625000000000000e-01+0.000000000000000000e+00j), (7.628803851539283087e-01+0.000000000000000000e+00j), (1.024000000000000000e+04+0.000000000000000000e+00j), (1.280000000000000000e+02+0.000000000000000000e+00j), (1.842204437255859375e+02+0.000000000000000000e+00j)
 (9.665744103295687006e-01+0.000000000000000000e+00j), (1.038724944126747096e-01+0.000000000000000000e+00j), (7.068359374999999556e-01+0.000000000000000000e+00j), (7.532236714178026649e-01+0.000000000000000000e+00j), (1.024000000000000000e+04+0.000000000000000000e+00j), (1.280000000000000000e+02+0.000000000000000000e+00j), (6.088251137733459473e+01+0.000000000000000000e+00j)
 (9.661878199331651595e-01+0.000000000000000000e+00j), (1.034633268636961645e-01+0.000000000000000000e+00j), (6.941406249999999556e-01+0.000000000000000000e+00j), (7.435669576816770210e-01+0.000000000000000000e+00j), (1.024000000000000000e+04+0.000000000000000000e+00j), (1.280000000000000000e+02+0.000000000000000000e+00j), (5.090429759025573730e+01+0.000000000000000000e+00j)
 (9.698409297794995387e-01+0.000000000000000000e+00j), (9.262483585095904193e-02+0.000000000000000000e+00j), (6.817382812500000222e-01+0.000000000000000000e+00j), (7.339102439455512661e-01+0.000000000000000000e+00j), (1.024000000000000000e+04+0.000000000000000000e+00j), (1.280000000000000000e+02+0.000000000000000000e+00j), (8.139069199562072754e+01+0.000000000000000000e+00j)
 (9.663526921425338312e-01+0.000000000000000000e+00j), (1.045899255574673503e-01+0.000000000000000000e+00j), (6.484375000000000000e-01+0.000000000000000000e+00j), (7.242535302094256222e-01+0.000000000000000000e+00j), (1.024000000000000000e+04+0.000000000000000000e+00j), (1.280000000000000000e+02+0.000000000000000000e+00j), (7.952541518211364746e+01+0.000000000000000000e+00j)
 (9.660432140603737450e-01+0.000000000000000000e+00j), (1.061802509007139794e-01+0.000000000000000000e+00j), (6.379882812499999556e-01+0.000000000000000000e+00j), (7.145968164732999783e-01+0.000000000000000000e+00j), (1.024000000000000000e+04+0.000000000000000000e+00j), (1.280000000000000000e+02+0.000000000000000000e+00j), (6.410177278518676758e+01+0.000000000000000000e+00j)
 (9.666108896866649758e-01+0.000000000000000000e+00j), (1.006158658826169922e-01+0.000000000000000000e+00j), (6.308593750000000000e-01+0.000000000000000000e+00j), (7.049401027371742234e-01+0.000000000000000000e+00j), (1.024000000000000000e+04+0.000000000000000000e+00j), (1.280000000000000000e+02+0.000000000000000000e+00j), (8.280476617813110352e+01+0.000000000000000000e+00j)
 (9.689440114586862496e-01+0.000000000000000000e+00j), (9.751937591113628290e-02+0.000000000000000000e+00j), (5.995117187499999778e-01+0.000000000000000000e+00j), (6.952833890010485796e-01+0.000000000000000000e+00j), (1.024000000000000000e+04+0.000000000000000000e+00j), (1.280000000000000000e+02+0.000000000000000000e+00j), (6.833330821990966797e+01+0.000000000000000000e+00j)
 (9.689821708492390995e-01+0.000000000000000000e+00j), (9.670968852295040719e-02+0.000000000000000000e+00j), (5.806640625000000222e-01+0.000000000000000000e+00j), (6.856266752649229357e-01+0.000000000000000000e+00j), (1.024000000000000000e+04+0.000000000000000000e+00j), (1.280000000000000000e+02+0.000000000000000000e+00j), (9.189743065834045410e+01+0.000000000000000000e+00j)
 (9.687060090984118688e-01+0.000000000000000000e+00j), (1.000087424141470477e-01+0.000000000000000000e+00j), (5.776367187500000000e-01+0.000000000000000000e+00j), (6.759699615287971808e-01+0.000000000000000000e+00j), (1.024000000000000000e+04+0.000000000000000000e+00j), (1.280000000000000000e+02+0.000000000000000000e+00j), (6.428962206840515137e+01+0.000000000000000000e+00j)
 (9.677439528378865008e-01+0.000000000000000000e+00j), (9.575426049617694058e-02+0.000000000000000000e+00j), (5.625000000000000000e-01+0.000000000000000000e+00j), (6.663132477926715369e-01+0.000000000000000000e+00j), (1.024000000000000000e+04+0.000000000000000000e+00j), (1.280000000000000000e+02+0.000000000000000000e+00j), (5.845907974243164062e+01+0.000000000000000000e+00j)
 (9.704225943898372453e-01+0.000000000000000000e+00j), (9.169780402608418424e-02+0.000000000000000000e+00j), (5.353515625000000444e-01+0.000000000000000000e+00j), (6.566565340565457820e-01+0.000000000000000000e+00j), (1.024000000000000000e+04+0.000000000000000000e+00j), (1.280000000000000000e+02+0.000000000000000000e+00j), (7.856542158126831055e+01+0.000000000000000000e+00j)
 (9.681199762040232359e-01+0.000000000000000000e+00j), (9.915345761454505413e-02+0.000000000000000000e+00j), (5.227539062499999556e-01+0.000000000000000000e+00j), (6.469998203204201381e-01+0.000000000000000000e+00j), (1.024000000000000000e+04+0.000000000000000000e+00j), (1.280000000000000000e+02+0.000000000000000000e+00j), (5.317692208290100098e+01+0.000000000000000000e+00j)
 (9.683109105452282206e-01+0.000000000000000000e+00j), (9.496497689167669731e-02+0.000000000000000000e+00j), (5.027343749999999556e-01+0.000000000000000000e+00j), (6.373431065842944943e-01+0.000000000000000000e+00j), (1.024000000000000000e+04+0.000000000000000000e+00j), (1.280000000000000000e+02+0.000000000000000000e+00j), (4.965714693069458008e+01+0.000000000000000000e+00j)
 (3.396066102027893066e+03+0.000000000000000000e+00j), (2.320000000000000000e+02+0.000000000000000000e+00j), (8.135834743973766603e-01+5.201952825644192702e-01j), (-6.599731541461111295e-01-5.000344493837416415e-01j), (0.000000000000000000e+00+0.000000000000000000e+00j), (0.000000000000000000e+00+0.000000000000000000e+00j), (0.000000000000000000e+00+0.000000000000000000e+00j)
